<?xml version="1.0" encoding="UTF-8" standalone="no"?>
<svg
   xmlns:dc="http://purl.org/dc/elements/1.1/"
   xmlns:cc="http://creativecommons.org/ns#"
   xmlns:rdf="http://www.w3.org/1999/02/22-rdf-syntax-ns#"
   xmlns:svg="http://www.w3.org/2000/svg"
   xmlns="http://www.w3.org/2000/svg"
   xmlns:xlink="http://www.w3.org/1999/xlink"
   xmlns:sodipodi="http://sodipodi.sourceforge.net/DTD/sodipodi-0.dtd"
   xmlns:inkscape="http://www.inkscape.org/namespaces/inkscape"
   width="504pt"
   height="504pt"
   viewBox="0 0 504 504"
   version="1.1"
   id="svg4851"
   inkscape:version="0.48.4 r9939"
   sodipodi:docname="ortho_multi.svg">
  <metadata
     id="metadata5227">
    <rdf:RDF>
      <cc:Work
         rdf:about="">
        <dc:format>image/svg+xml</dc:format>
        <dc:type
           rdf:resource="http://purl.org/dc/dcmitype/StillImage" />
        <dc:title></dc:title>
      </cc:Work>
    </rdf:RDF>
  </metadata>
  <sodipodi:namedview
     pagecolor="#ffffff"
     bordercolor="#666666"
     borderopacity="1"
     objecttolerance="10"
     gridtolerance="10"
     guidetolerance="10"
     inkscape:pageopacity="0"
     inkscape:pageshadow="2"
     inkscape:window-width="1916"
     inkscape:window-height="1023"
     id="namedview5225"
     showgrid="false"
     inkscape:zoom="1.0595378"
     inkscape:cx="388.15341"
     inkscape:cy="352.9154"
     inkscape:window-x="0"
     inkscape:window-y="36"
     inkscape:window-maximized="0"
     inkscape:current-layer="svg4851" />
  <defs
     id="defs4853">
    <g
       id="g4855">
      <symbol
         overflow="visible"
         id="glyph0-0">
        <path
           style="stroke:none;"
           d="M 5.609375 0 L 8.078125 -7.328125 L 8.078125 0 L 9.125 0 L 9.125 -8.75 L 7.578125 -8.75 L 5.046875 -1.125 L 2.453125 -8.75 L 0.90625 -8.75 L 0.90625 0 L 1.953125 0 L 1.953125 -7.328125 L 4.4375 0 Z M 5.609375 0 "
           id="path4858" />
      </symbol>
      <symbol
         overflow="visible"
         id="glyph0-1">
        <path
           style="stroke:none;"
           d="M 6.609375 -3.984375 L 6.609375 0 L 7.734375 0 L 7.734375 -8.75 L 6.609375 -8.75 L 6.609375 -4.96875 L 2.109375 -4.96875 L 2.109375 -8.75 L 1 -8.75 L 1 0 L 2.125 0 L 2.125 -3.984375 Z M 6.609375 -3.984375 "
           id="path4861" />
      </symbol>
      <symbol
         overflow="visible"
         id="glyph0-2">
        <path
           style="stroke:none;"
           d="M 5.65625 -4.171875 C 5.609375 -4.78125 5.46875 -5.1875 5.234375 -5.53125 C 4.796875 -6.125 4.046875 -6.46875 3.171875 -6.46875 C 1.46875 -6.46875 0.375 -5.125 0.375 -3.03125 C 0.375 -1.015625 1.453125 0.28125 3.15625 0.28125 C 4.65625 0.28125 5.609375 -0.625 5.71875 -2.15625 L 4.71875 -2.15625 C 4.546875 -1.15625 4.03125 -0.640625 3.1875 -0.640625 C 2.078125 -0.640625 1.421875 -1.546875 1.421875 -3.03125 C 1.421875 -4.609375 2.0625 -5.546875 3.15625 -5.546875 C 4 -5.546875 4.53125 -5.046875 4.640625 -4.171875 Z M 5.65625 -4.171875 "
           id="path4864" />
      </symbol>
      <symbol
         overflow="visible"
         id="glyph0-3">
        <path
           style="stroke:none;"
           d="M 3.265625 -6.46875 C 1.5 -6.46875 0.4375 -5.203125 0.4375 -3.09375 C 0.4375 -0.984375 1.484375 0.28125 3.28125 0.28125 C 5.046875 0.28125 6.125 -0.984375 6.125 -3.046875 C 6.125 -5.21875 5.078125 -6.46875 3.265625 -6.46875 Z M 3.28125 -5.546875 C 4.40625 -5.546875 5.078125 -4.625 5.078125 -3.0625 C 5.078125 -1.578125 4.375 -0.640625 3.28125 -0.640625 C 2.15625 -0.640625 1.46875 -1.578125 1.46875 -3.09375 C 1.46875 -4.609375 2.15625 -5.546875 3.28125 -5.546875 Z M 3.28125 -5.546875 "
           id="path4867" />
      </symbol>
      <symbol
         overflow="visible"
         id="glyph0-4">
        <path
           style="stroke:none;"
           d="M 2.65625 -3.90625 L 3.234375 -3.90625 C 4.390625 -3.90625 4.984375 -3.390625 4.984375 -2.359375 C 4.984375 -1.296875 4.328125 -0.65625 3.234375 -0.65625 C 2.078125 -0.65625 1.515625 -1.234375 1.4375 -2.46875 L 0.390625 -2.46875 C 0.4375 -1.78125 0.546875 -1.34375 0.75 -0.953125 C 1.1875 -0.140625 2.03125 0.28125 3.1875 0.28125 C 4.9375 0.28125 6.078125 -0.765625 6.078125 -2.375 C 6.078125 -3.453125 5.65625 -4.0625 4.625 -4.40625 C 5.421875 -4.71875 5.8125 -5.3125 5.8125 -6.171875 C 5.8125 -7.625 4.84375 -8.515625 3.234375 -8.515625 C 1.515625 -8.515625 0.59375 -7.578125 0.5625 -5.765625 L 1.625 -5.765625 C 1.625 -6.28125 1.6875 -6.5625 1.8125 -6.828125 C 2.046875 -7.296875 2.578125 -7.578125 3.234375 -7.578125 C 4.171875 -7.578125 4.734375 -7.03125 4.734375 -6.125 C 4.734375 -5.53125 4.53125 -5.171875 4.0625 -4.984375 C 3.765625 -4.859375 3.390625 -4.8125 2.65625 -4.796875 Z M 2.65625 -3.90625 "
           id="path4870" />
      </symbol>
      <symbol
         overflow="visible"
         id="glyph0-5">
        <path
           style="stroke:none;"
           d=""
           id="path4873" />
      </symbol>
      <symbol
         overflow="visible"
         id="glyph0-6">
        <path
           style="stroke:none;"
           d="M 2.828125 -8.75 C 1.625 -7.171875 0.875 -4.984375 0.875 -3.109375 C 0.875 -1.21875 1.625 0.96875 2.828125 2.546875 L 3.484375 2.546875 C 2.4375 0.828125 1.84375 -1.1875 1.84375 -3.109375 C 1.84375 -5.015625 2.4375 -7.046875 3.484375 -8.75 Z M 2.828125 -8.75 "
           id="path4876" />
      </symbol>
      <symbol
         overflow="visible"
         id="glyph0-7">
        <path
           style="stroke:none;"
           d="M 3.109375 -6.0625 L 3.109375 0 L 4.15625 0 L 4.15625 -8.515625 L 3.46875 -8.515625 C 3.09375 -7.203125 2.859375 -7.015625 1.21875 -6.8125 L 1.21875 -6.0625 Z M 3.109375 -6.0625 "
           id="path4879" />
      </symbol>
      <symbol
         overflow="visible"
         id="glyph0-8">
        <path
           style="stroke:none;"
           d="M 3.296875 -8.515625 C 2.515625 -8.515625 1.78125 -8.15625 1.34375 -7.578125 C 0.796875 -6.828125 0.515625 -5.6875 0.515625 -4.109375 C 0.515625 -1.25 1.46875 0.28125 3.296875 0.28125 C 5.09375 0.28125 6.078125 -1.25 6.078125 -4.046875 C 6.078125 -5.703125 5.8125 -6.796875 5.25 -7.578125 C 4.8125 -8.171875 4.109375 -8.515625 3.296875 -8.515625 Z M 3.296875 -7.578125 C 4.4375 -7.578125 5 -6.421875 5 -4.140625 C 5 -1.734375 4.453125 -0.59375 3.28125 -0.59375 C 2.15625 -0.59375 1.59375 -1.78125 1.59375 -4.109375 C 1.59375 -6.4375 2.15625 -7.578125 3.296875 -7.578125 Z M 3.296875 -7.578125 "
           id="path4882" />
      </symbol>
      <symbol
         overflow="visible"
         id="glyph0-9">
        <path
           style="stroke:none;"
           d="M 5.25 -4.53125 C 5.25 -5.765625 4.421875 -6.46875 2.96875 -6.46875 C 1.515625 -6.46875 0.5625 -5.71875 0.5625 -4.546875 C 0.5625 -3.5625 1.0625 -3.09375 2.5625 -2.734375 L 3.484375 -2.515625 C 4.1875 -2.34375 4.46875 -2.09375 4.46875 -1.625 C 4.46875 -1.046875 3.875 -0.640625 3 -0.640625 C 2.453125 -0.640625 2 -0.796875 1.75 -1.0625 C 1.59375 -1.25 1.53125 -1.421875 1.46875 -1.875 L 0.40625 -1.875 C 0.453125 -0.421875 1.265625 0.28125 2.921875 0.28125 C 4.5 0.28125 5.515625 -0.5 5.515625 -1.71875 C 5.515625 -2.65625 4.984375 -3.171875 3.734375 -3.46875 L 2.765625 -3.703125 C 1.953125 -3.890625 1.609375 -4.15625 1.609375 -4.59375 C 1.609375 -5.171875 2.125 -5.546875 2.9375 -5.546875 C 3.75 -5.546875 4.171875 -5.203125 4.203125 -4.53125 Z M 5.25 -4.53125 "
           id="path4885" />
      </symbol>
      <symbol
         overflow="visible"
         id="glyph0-10">
        <path
           style="stroke:none;"
           d="M 6.421875 -0.59375 C 6.3125 -0.5625 6.265625 -0.5625 6.203125 -0.5625 C 5.859375 -0.5625 5.65625 -0.75 5.65625 -1.0625 L 5.65625 -4.75 C 5.65625 -5.875 4.84375 -6.46875 3.296875 -6.46875 C 2.390625 -6.46875 1.625 -6.203125 1.21875 -5.734375 C 0.921875 -5.40625 0.796875 -5.046875 0.78125 -4.421875 L 1.78125 -4.421875 C 1.875 -5.203125 2.328125 -5.546875 3.265625 -5.546875 C 4.15625 -5.546875 4.671875 -5.203125 4.671875 -4.609375 L 4.671875 -4.34375 C 4.671875 -3.921875 4.421875 -3.75 3.625 -3.640625 C 2.203125 -3.46875 1.984375 -3.421875 1.609375 -3.265625 C 0.875 -2.96875 0.5 -2.40625 0.5 -1.578125 C 0.5 -0.4375 1.296875 0.28125 2.5625 0.28125 C 3.359375 0.28125 4 0 4.703125 -0.640625 C 4.78125 -0.015625 5.09375 0.28125 5.734375 0.28125 C 5.9375 0.28125 6.09375 0.25 6.421875 0.171875 Z M 4.671875 -1.984375 C 4.671875 -1.640625 4.578125 -1.4375 4.265625 -1.15625 C 3.859375 -0.796875 3.375 -0.59375 2.78125 -0.59375 C 2 -0.59375 1.546875 -0.96875 1.546875 -1.609375 C 1.546875 -2.265625 1.984375 -2.609375 3.0625 -2.765625 C 4.109375 -2.90625 4.328125 -2.953125 4.671875 -3.109375 Z M 4.671875 -1.984375 "
           id="path4888" />
      </symbol>
      <symbol
         overflow="visible"
         id="glyph0-11">
        <path
           style="stroke:none;"
           d="M 3.09375 -6.28125 L 2.046875 -6.28125 L 2.046875 -7.265625 C 2.046875 -7.6875 2.296875 -7.90625 2.75 -7.90625 C 2.828125 -7.90625 2.875 -7.90625 3.09375 -7.890625 L 3.09375 -8.71875 C 2.875 -8.765625 2.734375 -8.78125 2.53125 -8.78125 C 1.609375 -8.78125 1.0625 -8.25 1.0625 -7.359375 L 1.0625 -6.28125 L 0.21875 -6.28125 L 0.21875 -5.46875 L 1.0625 -5.46875 L 1.0625 0 L 2.046875 0 L 2.046875 -5.46875 L 3.09375 -5.46875 Z M 3.09375 -6.28125 "
           id="path4891" />
      </symbol>
      <symbol
         overflow="visible"
         id="glyph0-12">
        <path
           style="stroke:none;"
           d="M 1.828125 -8.75 L 0.8125 -8.75 L 0.8125 0 L 1.828125 0 Z M 1.828125 -8.75 "
           id="path4894" />
      </symbol>
      <symbol
         overflow="visible"
         id="glyph0-13">
        <path
           style="stroke:none;"
           d="M 5.9375 -8.75 L 4.9375 -8.75 L 4.9375 -5.5 C 4.53125 -6.125 3.859375 -6.46875 3.015625 -6.46875 C 1.375 -6.46875 0.3125 -5.15625 0.3125 -3.15625 C 0.3125 -1.03125 1.359375 0.28125 3.046875 0.28125 C 3.90625 0.28125 4.515625 -0.046875 5.046875 -0.828125 L 5.046875 0 L 5.9375 0 Z M 3.1875 -5.53125 C 4.265625 -5.53125 4.9375 -4.578125 4.9375 -3.078125 C 4.9375 -1.625 4.25 -0.65625 3.1875 -0.65625 C 2.09375 -0.65625 1.359375 -1.625 1.359375 -3.09375 C 1.359375 -4.5625 2.09375 -5.53125 3.1875 -5.53125 Z M 3.1875 -5.53125 "
           id="path4897" />
      </symbol>
      <symbol
         overflow="visible"
         id="glyph0-14">
        <path
           style="stroke:none;"
           d="M 1.109375 2.546875 C 2.3125 0.96875 3.078125 -1.21875 3.078125 -3.09375 C 3.078125 -4.984375 2.3125 -7.171875 1.109375 -8.75 L 0.453125 -8.75 C 1.515625 -7.03125 2.09375 -5.015625 2.09375 -3.09375 C 2.09375 -1.1875 1.515625 0.84375 0.453125 2.546875 Z M 1.109375 2.546875 "
           id="path4900" />
      </symbol>
      <symbol
         overflow="visible"
         id="glyph0-15">
        <path
           style="stroke:none;"
           d="M 3.046875 -6.28125 L 2.015625 -6.28125 L 2.015625 -8.015625 L 1.015625 -8.015625 L 1.015625 -6.28125 L 0.171875 -6.28125 L 0.171875 -5.46875 L 1.015625 -5.46875 L 1.015625 -0.71875 C 1.015625 -0.078125 1.453125 0.28125 2.234375 0.28125 C 2.46875 0.28125 2.71875 0.25 3.046875 0.1875 L 3.046875 -0.640625 C 2.921875 -0.609375 2.765625 -0.59375 2.5625 -0.59375 C 2.140625 -0.59375 2.015625 -0.71875 2.015625 -1.15625 L 2.015625 -5.46875 L 3.046875 -5.46875 Z M 3.046875 -6.28125 "
           id="path4903" />
      </symbol>
      <symbol
         overflow="visible"
         id="glyph0-16">
        <path
           style="stroke:none;"
           d="M 6.15625 -2.8125 C 6.15625 -3.765625 6.078125 -4.34375 5.90625 -4.8125 C 5.5 -5.84375 4.53125 -6.46875 3.359375 -6.46875 C 1.609375 -6.46875 0.484375 -5.125 0.484375 -3.0625 C 0.484375 -1 1.578125 0.28125 3.34375 0.28125 C 4.78125 0.28125 5.765625 -0.546875 6.03125 -1.90625 L 5.015625 -1.90625 C 4.734375 -1.078125 4.171875 -0.640625 3.375 -0.640625 C 2.734375 -0.640625 2.203125 -0.9375 1.859375 -1.46875 C 1.625 -1.828125 1.53125 -2.1875 1.53125 -2.8125 Z M 1.546875 -3.625 C 1.625 -4.78125 2.34375 -5.546875 3.34375 -5.546875 C 4.328125 -5.546875 5.09375 -4.734375 5.09375 -3.703125 C 5.09375 -3.671875 5.09375 -3.640625 5.078125 -3.625 Z M 1.546875 -3.625 "
           id="path4906" />
      </symbol>
      <symbol
         overflow="visible"
         id="glyph0-17">
        <path
           style="stroke:none;"
           d="M 0.828125 -6.28125 L 0.828125 0 L 1.84375 0 L 1.84375 -3.265625 C 1.84375 -4.15625 2.0625 -4.75 2.546875 -5.09375 C 2.859375 -5.328125 3.15625 -5.40625 3.859375 -5.40625 L 3.859375 -6.4375 C 3.6875 -6.453125 3.59375 -6.46875 3.46875 -6.46875 C 2.8125 -6.46875 2.328125 -6.078125 1.75 -5.140625 L 1.75 -6.28125 Z M 0.828125 -6.28125 "
           id="path4909" />
      </symbol>
      <symbol
         overflow="visible"
         id="glyph1-0">
        <path
           style="stroke:none;"
           d="M 7.359375 0 L 9.515625 0 L 9.515625 -10.5 L 7.359375 -10.5 L 7.359375 -3.359375 L 3.203125 -10.5 L 0.984375 -10.5 L 0.984375 0 L 3.140625 0 L 3.140625 -7.265625 Z M 7.359375 0 "
           id="path4912" />
      </symbol>
      <symbol
         overflow="visible"
         id="glyph1-1">
        <path
           style="stroke:none;"
           d="M 7.796875 0 L 7.796875 -7.78125 L 5.78125 -7.78125 L 5.78125 -2.90625 C 5.78125 -1.984375 5.125 -1.390625 4.15625 -1.390625 C 3.28125 -1.390625 2.859375 -1.84375 2.859375 -2.78125 L 2.859375 -7.78125 L 0.828125 -7.78125 L 0.828125 -2.359375 C 0.828125 -0.640625 1.78125 0.328125 3.4375 0.328125 C 4.5 0.328125 5.203125 -0.0625 5.78125 -0.921875 L 5.78125 0 Z M 7.796875 0 "
           id="path4915" />
      </symbol>
      <symbol
         overflow="visible"
         id="glyph1-2">
        <path
           style="stroke:none;"
           d="M 0.859375 -7.78125 L 0.859375 0 L 2.875 0 L 2.875 -4.671875 C 2.875 -5.625 3.40625 -6.1875 4.265625 -6.1875 C 4.9375 -6.1875 5.359375 -5.8125 5.359375 -5.1875 L 5.359375 0 L 7.375 0 L 7.375 -4.671875 C 7.375 -5.625 7.890625 -6.1875 8.765625 -6.1875 C 9.4375 -6.1875 9.859375 -5.8125 9.859375 -5.1875 L 9.859375 0 L 11.875 0 L 11.875 -5.5 C 11.875 -7.015625 10.953125 -7.90625 9.390625 -7.90625 C 8.40625 -7.90625 7.71875 -7.5625 7.109375 -6.75 C 6.734375 -7.484375 5.96875 -7.90625 5 -7.90625 C 4.109375 -7.90625 3.53125 -7.609375 2.859375 -6.8125 L 2.859375 -7.78125 Z M 0.859375 -7.78125 "
           id="path4918" />
      </symbol>
      <symbol
         overflow="visible"
         id="glyph1-3">
        <path
           style="stroke:none;"
           d="M 0.84375 -10.5 L 0.84375 0 L 2.859375 0 L 2.859375 -0.796875 C 3.359375 -0.03125 4.03125 0.328125 5.015625 0.328125 C 6.875 0.328125 8.28125 -1.4375 8.28125 -3.78125 C 8.28125 -4.84375 7.96875 -5.90625 7.453125 -6.65625 C 6.921875 -7.421875 5.96875 -7.90625 5.015625 -7.90625 C 4.046875 -7.90625 3.359375 -7.546875 2.859375 -6.765625 L 2.859375 -10.5 Z M 4.5625 -6.21875 C 5.5625 -6.21875 6.265625 -5.21875 6.265625 -3.78125 C 6.265625 -2.359375 5.5625 -1.359375 4.5625 -1.359375 C 3.546875 -1.359375 2.859375 -2.328125 2.859375 -3.8125 C 2.859375 -5.234375 3.5625 -6.21875 4.5625 -6.21875 Z M 4.5625 -6.21875 "
           id="path4921" />
      </symbol>
      <symbol
         overflow="visible"
         id="glyph1-4">
        <path
           style="stroke:none;"
           d="M 7.546875 -3.25 C 7.5625 -3.421875 7.5625 -3.5 7.5625 -3.59375 C 7.5625 -4.375 7.453125 -5.09375 7.265625 -5.640625 C 6.734375 -7.0625 5.484375 -7.90625 3.921875 -7.90625 C 1.6875 -7.90625 0.3125 -6.296875 0.3125 -3.6875 C 0.3125 -1.203125 1.671875 0.328125 3.875 0.328125 C 5.625 0.328125 7.03125 -0.65625 7.484375 -2.1875 L 5.484375 -2.1875 C 5.25 -1.5625 4.6875 -1.203125 3.953125 -1.203125 C 3.375 -1.203125 2.90625 -1.453125 2.625 -1.890625 C 2.4375 -2.171875 2.359375 -2.515625 2.328125 -3.25 Z M 2.359375 -4.59375 C 2.5 -5.78125 3 -6.375 3.890625 -6.375 C 4.390625 -6.375 4.859375 -6.125 5.140625 -5.71875 C 5.328125 -5.4375 5.421875 -5.125 5.453125 -4.59375 Z M 2.359375 -4.59375 "
           id="path4924" />
      </symbol>
      <symbol
         overflow="visible"
         id="glyph1-5">
        <path
           style="stroke:none;"
           d="M 0.90625 -7.78125 L 0.90625 0 L 2.921875 0 L 2.921875 -4.140625 C 2.921875 -5.3125 3.515625 -5.90625 4.703125 -5.90625 C 4.90625 -5.90625 5.0625 -5.890625 5.328125 -5.84375 L 5.328125 -7.890625 C 5.21875 -7.90625 5.140625 -7.90625 5.078125 -7.90625 C 4.15625 -7.90625 3.359375 -7.296875 2.921875 -6.25 L 2.921875 -7.78125 Z M 0.90625 -7.78125 "
           id="path4927" />
      </symbol>
      <symbol
         overflow="visible"
         id="glyph1-6">
        <path
           style="stroke:none;"
           d=""
           id="path4930" />
      </symbol>
      <symbol
         overflow="visible"
         id="glyph1-7">
        <path
           style="stroke:none;"
           d="M 4.34375 -7.90625 C 1.953125 -7.90625 0.5 -6.34375 0.5 -3.78125 C 0.5 -1.21875 1.953125 0.328125 4.34375 0.328125 C 6.71875 0.328125 8.203125 -1.234375 8.203125 -3.734375 C 8.203125 -6.375 6.765625 -7.90625 4.34375 -7.90625 Z M 4.34375 -6.28125 C 5.453125 -6.28125 6.1875 -5.28125 6.1875 -3.765625 C 6.1875 -2.3125 5.4375 -1.296875 4.34375 -1.296875 C 3.25 -1.296875 2.515625 -2.3125 2.515625 -3.78125 C 2.515625 -5.265625 3.25 -6.28125 4.34375 -6.28125 Z M 4.34375 -6.28125 "
           id="path4933" />
      </symbol>
      <symbol
         overflow="visible"
         id="glyph1-8">
        <path
           style="stroke:none;"
           d="M 4.515625 -7.625 L 3.3125 -7.625 L 3.3125 -8.390625 C 3.3125 -8.78125 3.484375 -8.984375 3.859375 -8.984375 C 4.03125 -8.984375 4.265625 -8.96875 4.4375 -8.953125 L 4.4375 -10.453125 C 4.0625 -10.484375 3.5625 -10.5 3.28125 -10.5 C 1.9375 -10.5 1.296875 -9.875 1.296875 -8.5625 L 1.296875 -7.625 L 0.203125 -7.625 L 0.203125 -6.28125 L 1.296875 -6.28125 L 1.296875 0 L 3.3125 0 L 3.3125 -6.28125 L 4.515625 -6.28125 Z M 4.515625 -7.625 "
           id="path4936" />
      </symbol>
      <symbol
         overflow="visible"
         id="glyph1-9">
        <path
           style="stroke:none;"
           d="M 7.28125 -5.265625 C 7.25 -6.921875 5.984375 -7.90625 3.890625 -7.90625 C 1.921875 -7.90625 0.6875 -6.921875 0.6875 -5.3125 C 0.6875 -4.796875 0.84375 -4.34375 1.125 -4.046875 C 1.390625 -3.78125 1.640625 -3.640625 2.390625 -3.40625 L 4.796875 -2.65625 C 5.296875 -2.5 5.46875 -2.328125 5.46875 -2.015625 C 5.46875 -1.546875 4.90625 -1.25 3.96875 -1.25 C 3.453125 -1.25 3.046875 -1.359375 2.78125 -1.53125 C 2.5625 -1.6875 2.484375 -1.84375 2.390625 -2.265625 L 0.421875 -2.265625 C 0.46875 -0.5625 1.734375 0.328125 4.09375 0.328125 C 5.171875 0.328125 6 0.09375 6.5625 -0.359375 C 7.140625 -0.828125 7.484375 -1.546875 7.484375 -2.3125 C 7.484375 -3.3125 6.984375 -3.96875 5.96875 -4.265625 L 3.421875 -5 C 2.859375 -5.171875 2.703125 -5.28125 2.703125 -5.609375 C 2.703125 -6.03125 3.171875 -6.328125 3.875 -6.328125 C 4.84375 -6.328125 5.3125 -5.984375 5.328125 -5.265625 Z M 7.28125 -5.265625 "
           id="path4939" />
      </symbol>
      <symbol
         overflow="visible"
         id="glyph1-10">
        <path
           style="stroke:none;"
           d="M 7.515625 -4.875 C 7.375 -6.765625 6.109375 -7.90625 4.15625 -7.90625 C 1.84375 -7.90625 0.484375 -6.375 0.484375 -3.734375 C 0.484375 -1.171875 1.828125 0.328125 4.140625 0.328125 C 6.015625 0.328125 7.328125 -0.828125 7.515625 -2.6875 L 5.59375 -2.6875 C 5.328125 -1.6875 4.921875 -1.296875 4.15625 -1.296875 C 3.125 -1.296875 2.5 -2.21875 2.5 -3.734375 C 2.5 -4.46875 2.65625 -5.15625 2.890625 -5.625 C 3.125 -6.046875 3.578125 -6.28125 4.15625 -6.28125 C 4.96875 -6.28125 5.359375 -5.890625 5.59375 -4.875 Z M 7.515625 -4.875 "
           id="path4942" />
      </symbol>
      <symbol
         overflow="visible"
         id="glyph1-11">
        <path
           style="stroke:none;"
           d="M 7.546875 -0.25 C 7.1875 -0.578125 7.09375 -0.796875 7.09375 -1.203125 L 7.09375 -5.515625 C 7.09375 -7.109375 6 -7.90625 3.90625 -7.90625 C 1.796875 -7.90625 0.703125 -7.015625 0.578125 -5.21875 L 2.515625 -5.21875 C 2.625 -6.015625 2.953125 -6.28125 3.953125 -6.28125 C 4.71875 -6.28125 5.109375 -6.015625 5.109375 -5.5 C 5.109375 -5.25 4.984375 -5.015625 4.765625 -4.890625 C 4.5 -4.75 4.5 -4.75 3.5 -4.59375 L 2.6875 -4.453125 C 1.15625 -4.1875 0.40625 -3.40625 0.40625 -2 C 0.40625 -1.34375 0.59375 -0.796875 0.953125 -0.40625 C 1.390625 0.0625 2.078125 0.328125 2.765625 0.328125 C 3.625 0.328125 4.421875 -0.046875 5.125 -0.78125 C 5.125 -0.375 5.171875 -0.234375 5.359375 0 L 7.546875 0 Z M 5.109375 -3.125 C 5.109375 -1.953125 4.53125 -1.296875 3.515625 -1.296875 C 2.84375 -1.296875 2.421875 -1.65625 2.421875 -2.234375 C 2.421875 -2.84375 2.734375 -3.125 3.578125 -3.296875 L 4.265625 -3.421875 C 4.796875 -3.53125 4.890625 -3.5625 5.109375 -3.671875 Z M 5.109375 -3.125 "
           id="path4945" />
      </symbol>
      <symbol
         overflow="visible"
         id="glyph1-12">
        <path
           style="stroke:none;"
           d="M 2.984375 -10.5 L 0.96875 -10.5 L 0.96875 0 L 2.984375 0 Z M 2.984375 -10.5 "
           id="path4948" />
      </symbol>
      <symbol
         overflow="visible"
         id="glyph1-13">
        <path
           style="stroke:none;"
           d="M 5.828125 0 L 7.84375 0 L 7.84375 -10.5 L 5.828125 -10.5 L 5.828125 -6.765625 C 5.328125 -7.546875 4.65625 -7.90625 3.6875 -7.90625 C 1.828125 -7.90625 0.421875 -6.125 0.421875 -3.78125 C 0.421875 -2.71875 0.734375 -1.65625 1.25 -0.90625 C 1.78125 -0.15625 2.734375 0.328125 3.6875 0.328125 C 4.65625 0.328125 5.328125 -0.03125 5.828125 -0.796875 Z M 4.140625 -6.21875 C 5.15625 -6.21875 5.828125 -5.234375 5.828125 -3.75 C 5.828125 -2.328125 5.140625 -1.359375 4.140625 -1.359375 C 3.125 -1.359375 2.4375 -2.34375 2.4375 -3.78125 C 2.4375 -5.21875 3.125 -6.21875 4.140625 -6.21875 Z M 4.140625 -6.21875 "
           id="path4951" />
      </symbol>
      <symbol
         overflow="visible"
         id="glyph1-14">
        <path
           style="stroke:none;"
           d="M 8.828125 0 L 11.03125 -7.78125 L 8.953125 -7.78125 L 7.765625 -2.328125 L 6.59375 -7.78125 L 4.578125 -7.78125 L 3.40625 -2.328125 L 2.15625 -7.78125 L 0.078125 -7.78125 L 2.265625 0 L 4.34375 0 L 5.578125 -5.484375 L 6.734375 0 Z M 8.828125 0 "
           id="path4954" />
      </symbol>
      <symbol
         overflow="visible"
         id="glyph1-15">
        <path
           style="stroke:none;"
           d="M 2.984375 -7.78125 L 0.96875 -7.78125 L 0.96875 0 L 2.984375 0 Z M 2.984375 -10.5 L 0.96875 -10.5 L 0.96875 -8.703125 L 2.984375 -8.703125 Z M 2.984375 -10.5 "
           id="path4957" />
      </symbol>
      <symbol
         overflow="visible"
         id="glyph1-16">
        <path
           style="stroke:none;"
           d="M 4.34375 -7.625 L 3.21875 -7.625 L 3.21875 -9.703125 L 1.203125 -9.703125 L 1.203125 -7.625 L 0.203125 -7.625 L 0.203125 -6.28125 L 1.203125 -6.28125 L 1.203125 -1.5 C 1.203125 -0.28125 1.84375 0.328125 3.171875 0.328125 C 3.609375 0.328125 3.96875 0.28125 4.34375 0.171875 L 4.34375 -1.234375 C 4.140625 -1.203125 4.015625 -1.203125 3.875 -1.203125 C 3.34375 -1.203125 3.21875 -1.359375 3.21875 -2.046875 L 3.21875 -6.28125 L 4.34375 -6.28125 Z M 4.34375 -7.625 "
           id="path4960" />
      </symbol>
      <symbol
         overflow="visible"
         id="glyph1-17">
        <path
           style="stroke:none;"
           d="M 0.96875 -10.5 L 0.96875 0 L 2.984375 0 L 2.984375 -4.671875 C 2.984375 -5.5625 3.625 -6.1875 4.53125 -6.1875 C 4.96875 -6.1875 5.3125 -6.03125 5.546875 -5.71875 C 5.71875 -5.453125 5.78125 -5.265625 5.78125 -4.75 L 5.78125 0 L 7.796875 0 L 7.796875 -5.21875 C 7.796875 -6.1875 7.53125 -6.875 7 -7.3125 C 6.5625 -7.6875 5.90625 -7.90625 5.265625 -7.90625 C 4.265625 -7.90625 3.546875 -7.5 2.984375 -6.65625 L 2.984375 -10.5 Z M 0.96875 -10.5 "
           id="path4963" />
      </symbol>
      <symbol
         overflow="visible"
         id="glyph1-18">
        <path
           style="stroke:none;"
           d="M 2.859375 -7.78125 L 0.828125 -7.78125 L 0.828125 3.140625 L 2.859375 3.140625 L 2.859375 -0.921875 C 3.34375 -0.0625 4.03125 0.34375 5.015625 0.34375 C 6.890625 0.34375 8.265625 -1.40625 8.265625 -3.78125 C 8.265625 -4.875 7.953125 -5.96875 7.4375 -6.6875 C 6.921875 -7.421875 5.953125 -7.90625 5.015625 -7.90625 C 4.03125 -7.90625 3.34375 -7.484375 2.859375 -6.625 Z M 4.546875 -6.21875 C 5.578125 -6.21875 6.25 -5.234375 6.25 -3.75 C 6.25 -2.328125 5.546875 -1.34375 4.546875 -1.34375 C 3.546875 -1.34375 2.859375 -2.3125 2.859375 -3.78125 C 2.859375 -5.234375 3.546875 -6.21875 4.546875 -6.21875 Z M 4.546875 -6.21875 "
           id="path4966" />
      </symbol>
      <symbol
         overflow="visible"
         id="glyph1-19">
        <path
           style="stroke:none;"
           d="M 0.90625 -7.78125 L 0.90625 0 L 2.921875 0 L 2.921875 -4.671875 C 2.921875 -5.59375 3.578125 -6.1875 4.546875 -6.1875 C 5.421875 -6.1875 5.84375 -5.71875 5.84375 -4.796875 L 5.84375 0 L 7.859375 0 L 7.859375 -5.21875 C 7.859375 -6.921875 6.921875 -7.90625 5.265625 -7.90625 C 4.203125 -7.90625 3.5 -7.515625 2.921875 -6.65625 L 2.921875 -7.78125 Z M 0.90625 -7.78125 "
           id="path4969" />
      </symbol>
      <symbol
         overflow="visible"
         id="glyph1-20">
        <path
           style="stroke:none;"
           d="M 5.875 -7.78125 L 5.875 -6.578125 C 5.265625 -7.5 4.609375 -7.90625 3.71875 -7.90625 C 1.875 -7.90625 0.484375 -6.109375 0.484375 -3.703125 C 0.484375 -1.28125 1.75 0.328125 3.671875 0.328125 C 4.578125 0.328125 5.125 0.0625 5.875 -0.796875 L 5.875 0.265625 C 5.875 1.203125 5.171875 1.84375 4.15625 1.84375 C 3.40625 1.84375 2.890625 1.53125 2.734375 0.9375 L 0.640625 0.9375 C 0.65625 1.546875 0.890625 1.953125 1.40625 2.390625 C 2.03125 2.890625 2.890625 3.140625 4.09375 3.140625 C 6.4375 3.140625 7.796875 2.09375 7.796875 0.265625 L 7.796875 -7.78125 Z M 4.15625 -6.21875 C 5.15625 -6.21875 5.90625 -5.171875 5.90625 -3.734375 C 5.90625 -2.3125 5.171875 -1.359375 4.125 -1.359375 C 3.171875 -1.359375 2.5 -2.3125 2.5 -3.734375 C 2.5 -5.203125 3.171875 -6.21875 4.15625 -6.21875 Z M 4.15625 -6.21875 "
           id="path4972" />
      </symbol>
    </g>
    <clipPath
       id="clip1">
      <path
         d="M 59.039062 59.039062 L 474.757812 59.039062 L 474.757812 431.558594 L 59.039062 431.558594 Z M 59.039062 59.039062 "
         id="path4975" />
    </clipPath>
    <clipPath
       id="clip2">
      <path
         d="M 59.039062 59.039062 L 474.757812 59.039062 L 474.757812 431.558594 L 59.039062 431.558594 Z M 59.039062 59.039062 "
         id="path4978" />
    </clipPath>
  </defs>
  <path
     style="fill:#ffffff;fill-opacity:1;fill-rule:nonzero;stroke:#000000;stroke-width:0.75;stroke-linecap:round;stroke-linejoin:round;stroke-miterlimit:10;stroke-opacity:1"
     d="m 404,244.80078 -0.0703,-4.35937 -0.20703,-4.35547 -0.34375,-4.34766 -0.48438,-4.33594 -0.61719,-4.3164 -0.75781,-4.29297 -0.89062,-4.26953 -1.02735,-4.23828 -1.16015,-4.20313 -1.29297,-4.16406 -1.42578,-4.1211 -1.55469,-4.07421 -1.67969,-4.02344 -1.8125,-3.96485 -1.93359,-3.91015 -2.05469,-3.84375 -2.17969,-3.77735 -2.29297,-3.70703 -2.41406,-3.63281 -2.52734,-3.55469 -2.63672,-3.47265 -2.7461,-3.38672 -2.85156,-3.29688 -2.95703,-3.20703 -3.05469,-3.10937 -3.15234,-3.01172 -3.24609,-2.91406 -3.33985,-2.80469 -3.42187,-2.69922 -3.50782,-2.58984 -3.58984,-2.47657 -3.66406,-2.36328 -3.73828,-2.24609 -3.8086,-2.125 -3.87109,-2.00391 -3.9375,-1.8789 -3.99219,-1.75391 -4.04297,-1.62891 -4.09765,-1.49609 -4.14063,-1.37109 -4.17969,-1.23438 -4.21875,-1.10156 -4.2539,-0.96875 -4.27735,-0.83203 -4.30468,-0.69922 -4.32422,-0.55859 -4.33985,-0.42188 -4.35156,-0.28516 -4.35937,-0.14843 -4.35938,-0.008 -4.35937,0.12891 -4.35157,0.26563 -4.34375,0.40625 -4.32421,0.53906 -4.3086,0.67969 -4.28515,0.8164 -4.25391,0.94922 -4.22266,1.08594 -4.1875,1.21875 -4.14453,1.35156 -4.10156,1.48047 -4.05469,1.60937 -4,1.73829 -3.9414,1.86328 -3.87891,1.98828 -3.81641,2.10937 -3.75,2.22657 -3.67578,2.34765 -3.59765,2.46484 -3.51954,2.57422 -3.43359,2.6836 -3.34766,2.79297 -3.26171,2.89843 -3.16407,3 -3.07031,3.09766 -2.96875,3.19141 -2.86328,3.28906 -2.76172,3.375 -2.65234,3.46094 -2.54297,3.54296 -2.42578,3.6211 -2.3125,3.69922 -2.19141,3.76953 -2.07422,3.83594 -1.94922,3.89843 -1.82812,3.96094 -1.69922,4.01563 -1.57031,4.0664 -1.44141,4.11719 -1.30859,4.15625 -1.17969,4.19922 -1.04297,4.23437 -0.91016,4.26563 -0.77343,4.28906 -0.64063,4.3125 -0.5,4.33203 -0.36328,4.34766 -0.22656,4.35547 -0.0859,4.35937 0.0508,4.35938 0.19141,4.35547 0.32422,4.34765 0.46484,4.33594 0.60156,4.32031 0.73828,4.29688 0.875,4.27343 1.00782,4.24219 1.14453,4.20703 1.27344,4.16797 1.41015,4.12891 1.53516,4.08203 1.66797,4.02734 1.78906,3.97657 1.91797,3.91406 2.04297,3.85547 2.16015,3.78515 2.28125,3.71875 2.39844,3.64063 2.51172,3.5664 2.62109,3.48047 2.73438,3.39844 2.83594,3.3125 2.94531,3.21875 3.04297,3.12109 3.13672,3.02735 3.23437,2.92578 3.32813,2.82031 3.41015,2.71094 3.5,2.60547 3.57813,2.49219 3.65234,2.3789 3.73047,2.25781 3.79687,2.14454 3.86719,2.01953 3.92578,1.89453 3.98438,1.77344 4.03906,1.64062 4.08984,1.51563 4.13282,1.38671 4.17578,1.25391 4.21484,1.11719 4.2461,0.98828 4.27734,0.85156 4.30469,0.71485 4.32031,0.57812 4.33594,0.44141 4.35156,0.30078 4.35937,0.16797 4.35938,0.0273 4.35937,-0.11328 4.35157,-0.24609 4.34375,-0.38672 4.32812,-0.52735 4.3125,-0.66015 4.28516,-0.79688 4.26172,-0.93359 4.22656,-1.06641 4.19141,-1.19922 4.15234,-1.33203 4.10547,-1.46484 4.0625,-1.59375 4.0039,-1.72266 3.94922,-1.84375 3.89063,-1.97265 3.82422,-2.09375 3.75781,-2.21485 3.68359,-2.33203 3.60938,-2.44531 3.53125,-2.5625 3.44531,-2.66797 3.36328,-2.78125 3.26953,-2.88281 3.17578,-2.98438 3.08204,-3.08594 2.98437,-3.18359 2.87891,-3.27344 2.77343,-3.36328 2.66797,-3.44922 2.55469,-3.53515 2.44531,-3.60938 2.32422,-3.6875 2.21094,-3.76172 2.08984,-3.82812 1.96485,-3.89063 1.84375,-3.95312 1.71484,-4.00781 1.58984,-4.0625 1.45704,-4.10547 1.32812,-4.15625 1.19531,-4.19141 1.0625,-4.23047 0.92578,-4.26172 0.79297,-4.28515 -135.6914,-22.84766 z m 0,0"
     id="path4985"
     inkscape:connector-curvature="0"
     inkscape:export-filename="/tmp/blah.png"
     inkscape:export-xdpi="530.03613"
     inkscape:export-ydpi="530.03613" />
  <path
     style="fill:none;stroke:#000000;stroke-width:0.75;stroke-linecap:round;stroke-linejoin:round;stroke-miterlimit:10;stroke-opacity:1"
     d="m 129.27734,233.33594 -6.85546,-0.57422"
     id="path4987"
     inkscape:connector-curvature="0"
     inkscape:export-filename="/tmp/blah.png"
     inkscape:export-xdpi="530.03613"
     inkscape:export-ydpi="530.03613" />
  <use
     style="fill:#000000;fill-opacity:1"
     xlink:href="#glyph0-0"
     x="-5.4335942"
     y="234.62695"
     id="use4991"
     width="504"
     height="504"
     inkscape:export-filename="/tmp/blah.png"
     inkscape:export-xdpi="530.03613"
     inkscape:export-ydpi="530.03613" />
  <use
     style="fill:#000000;fill-opacity:1"
     xlink:href="#glyph0-1"
     x="4.5625"
     y="234.62695"
     id="use4993"
     width="504"
     height="504"
     inkscape:export-filename="/tmp/blah.png"
     inkscape:export-xdpi="530.03613"
     inkscape:export-ydpi="530.03613" />
  <use
     style="fill:#000000;fill-opacity:1"
     xlink:href="#glyph0-2"
     x="13.226562"
     y="234.62695"
     id="use4995"
     width="504"
     height="504"
     inkscape:export-filename="/tmp/blah.png"
     inkscape:export-xdpi="530.03613"
     inkscape:export-ydpi="530.03613" />
  <use
     style="fill:#000000;fill-opacity:1"
     xlink:href="#glyph0-3"
     x="19.226562"
     y="234.62695"
     id="use4997"
     width="504"
     height="504"
     inkscape:export-filename="/tmp/blah.png"
     inkscape:export-xdpi="530.03613"
     inkscape:export-ydpi="530.03613" />
  <use
     style="fill:#000000;fill-opacity:1"
     xlink:href="#glyph0-4"
     x="25.898438"
     y="234.62695"
     id="use4999"
     width="504"
     height="504"
     inkscape:export-filename="/tmp/blah.png"
     inkscape:export-xdpi="530.03613"
     inkscape:export-ydpi="530.03613" />
  <use
     style="fill:#000000;fill-opacity:1"
     xlink:href="#glyph0-5"
     x="32.570312"
     y="234.62695"
     id="use5001"
     width="504"
     height="504" />
  <use
     style="fill:#000000;fill-opacity:1"
     xlink:href="#glyph0-6"
     x="35.90625"
     y="234.62695"
     id="use5003"
     width="504"
     height="504"
     inkscape:export-filename="/tmp/blah.png"
     inkscape:export-xdpi="530.03613"
     inkscape:export-ydpi="530.03613" />
  <use
     style="fill:#000000;fill-opacity:1"
     xlink:href="#glyph0-7"
     x="39.902344"
     y="234.62695"
     id="use5005"
     width="504"
     height="504"
     inkscape:export-filename="/tmp/blah.png"
     inkscape:export-xdpi="530.03613"
     inkscape:export-ydpi="530.03613" />
  <use
     style="fill:#000000;fill-opacity:1"
     xlink:href="#glyph0-7"
     x="46.574219"
     y="234.62695"
     id="use5007"
     width="504"
     height="504"
     inkscape:export-filename="/tmp/blah.png"
     inkscape:export-xdpi="530.03613"
     inkscape:export-ydpi="530.03613" />
  <use
     style="fill:#000000;fill-opacity:1"
     xlink:href="#glyph0-8"
     x="53.246094"
     y="234.62695"
     id="use5009"
     width="504"
     height="504"
     inkscape:export-filename="/tmp/blah.png"
     inkscape:export-xdpi="530.03613"
     inkscape:export-ydpi="530.03613" />
  <use
     style="fill:#000000;fill-opacity:1"
     xlink:href="#glyph0-5"
     x="59.917969"
     y="234.62695"
     id="use5011"
     width="504"
     height="504" />
  <use
     style="fill:#000000;fill-opacity:1"
     xlink:href="#glyph0-9"
     x="63.253906"
     y="234.62695"
     id="use5013"
     width="504"
     height="504"
     inkscape:export-filename="/tmp/blah.png"
     inkscape:export-xdpi="530.03613"
     inkscape:export-ydpi="530.03613" />
  <use
     style="fill:#000000;fill-opacity:1"
     xlink:href="#glyph0-2"
     x="69.253906"
     y="234.62695"
     id="use5015"
     width="504"
     height="504"
     inkscape:export-filename="/tmp/blah.png"
     inkscape:export-xdpi="530.03613"
     inkscape:export-ydpi="530.03613" />
  <use
     style="fill:#000000;fill-opacity:1"
     xlink:href="#glyph0-10"
     x="75.253906"
     y="234.62695"
     id="use5017"
     width="504"
     height="504"
     inkscape:export-filename="/tmp/blah.png"
     inkscape:export-xdpi="530.03613"
     inkscape:export-ydpi="530.03613" />
  <use
     style="fill:#000000;fill-opacity:1"
     xlink:href="#glyph0-11"
     x="81.925781"
     y="234.62695"
     id="use5019"
     width="504"
     height="504"
     inkscape:export-filename="/tmp/blah.png"
     inkscape:export-xdpi="530.03613"
     inkscape:export-ydpi="530.03613" />
  <use
     style="fill:#000000;fill-opacity:1"
     xlink:href="#glyph0-11"
     x="85.261719"
     y="234.62695"
     id="use5021"
     width="504"
     height="504"
     inkscape:export-filename="/tmp/blah.png"
     inkscape:export-xdpi="530.03613"
     inkscape:export-ydpi="530.03613" />
  <use
     style="fill:#000000;fill-opacity:1"
     xlink:href="#glyph0-3"
     x="88.597656"
     y="234.62695"
     id="use5023"
     width="504"
     height="504"
     inkscape:export-filename="/tmp/blah.png"
     inkscape:export-xdpi="530.03613"
     inkscape:export-ydpi="530.03613" />
  <use
     style="fill:#000000;fill-opacity:1"
     xlink:href="#glyph0-12"
     x="95.269531"
     y="234.62695"
     id="use5025"
     width="504"
     height="504"
     inkscape:export-filename="/tmp/blah.png"
     inkscape:export-xdpi="530.03613"
     inkscape:export-ydpi="530.03613" />
  <use
     style="fill:#000000;fill-opacity:1"
     xlink:href="#glyph0-13"
     x="97.933594"
     y="234.62695"
     id="use5027"
     width="504"
     height="504"
     inkscape:export-filename="/tmp/blah.png"
     inkscape:export-xdpi="530.03613"
     inkscape:export-ydpi="530.03613" />
  <use
     style="fill:#000000;fill-opacity:1"
     xlink:href="#glyph0-9"
     x="104.60547"
     y="234.62695"
     id="use5029"
     width="504"
     height="504"
     inkscape:export-filename="/tmp/blah.png"
     inkscape:export-xdpi="530.03613"
     inkscape:export-ydpi="530.03613" />
  <use
     style="fill:#000000;fill-opacity:1"
     xlink:href="#glyph0-14"
     x="110.60547"
     y="234.62695"
     id="use5031"
     width="504"
     height="504"
     inkscape:export-filename="/tmp/blah.png"
     inkscape:export-xdpi="530.03613"
     inkscape:export-ydpi="530.03613" />
  <path
     style="fill:#abd7e6;fill-opacity:1;fill-rule:nonzero;stroke:#000000;stroke-width:0.75;stroke-linecap:round;stroke-linejoin:round;stroke-miterlimit:10;stroke-opacity:1"
     d="m 402.08984,267.64844 0.83594,-5.67969 0.59766,-5.70703 0.35547,-5.72656 0.12109,-5.73438 -137.60156,0 z m 0,0"
     id="path5035"
     inkscape:connector-curvature="0"
     inkscape:export-filename="/tmp/blah.png"
     inkscape:export-xdpi="530.03613"
     inkscape:export-ydpi="530.03613" />
  <path
     style="fill:none;stroke:#000000;stroke-width:0.75;stroke-linecap:round;stroke-linejoin:round;stroke-miterlimit:10;stroke-opacity:1"
     d="m 403.52344,256.26172 6.85547,0.57422"
     id="path5037"
     inkscape:connector-curvature="0"
     inkscape:export-filename="/tmp/blah.png"
     inkscape:export-xdpi="530.03613"
     inkscape:export-ydpi="530.03613" />
  <use
     style="fill:#000000;fill-opacity:1"
     xlink:href="#glyph0-0"
     x="417.23438"
     y="259.8457"
     id="use5041"
     width="504"
     height="504"
     inkscape:export-filename="/tmp/blah.png"
     inkscape:export-xdpi="530.03613"
     inkscape:export-ydpi="530.03613" />
  <use
     style="fill:#000000;fill-opacity:1"
     xlink:href="#glyph0-2"
     x="427.23047"
     y="259.8457"
     id="use5043"
     width="504"
     height="504"
     inkscape:export-filename="/tmp/blah.png"
     inkscape:export-xdpi="530.03613"
     inkscape:export-ydpi="530.03613" />
  <use
     style="fill:#000000;fill-opacity:1"
     xlink:href="#glyph0-0"
     x="433.23047"
     y="259.8457"
     id="use5045"
     width="504"
     height="504"
     inkscape:export-filename="/tmp/blah.png"
     inkscape:export-xdpi="530.03613"
     inkscape:export-ydpi="530.03613" />
  <use
     style="fill:#000000;fill-opacity:1"
     xlink:href="#glyph0-10"
     x="443.22656"
     y="259.8457"
     id="use5047"
     width="504"
     height="504"
     inkscape:export-filename="/tmp/blah.png"
     inkscape:export-xdpi="530.03613"
     inkscape:export-ydpi="530.03613" />
  <use
     style="fill:#000000;fill-opacity:1"
     xlink:href="#glyph0-9"
     x="449.89844"
     y="259.8457"
     id="use5049"
     width="504"
     height="504"
     inkscape:export-filename="/tmp/blah.png"
     inkscape:export-xdpi="530.03613"
     inkscape:export-ydpi="530.03613" />
  <use
     style="fill:#000000;fill-opacity:1"
     xlink:href="#glyph0-15"
     x="455.89844"
     y="259.8457"
     id="use5051"
     width="504"
     height="504"
     inkscape:export-filename="/tmp/blah.png"
     inkscape:export-xdpi="530.03613"
     inkscape:export-ydpi="530.03613" />
  <use
     style="fill:#000000;fill-opacity:1"
     xlink:href="#glyph0-16"
     x="459.23438"
     y="259.8457"
     id="use5053"
     width="504"
     height="504"
     inkscape:export-filename="/tmp/blah.png"
     inkscape:export-xdpi="530.03613"
     inkscape:export-ydpi="530.03613" />
  <use
     style="fill:#000000;fill-opacity:1"
     xlink:href="#glyph0-17"
     x="465.90625"
     y="259.8457"
     id="use5055"
     width="504"
     height="504"
     inkscape:export-filename="/tmp/blah.png"
     inkscape:export-xdpi="530.03613"
     inkscape:export-ydpi="530.03613" />
  <use
     style="fill:#000000;fill-opacity:1"
     xlink:href="#glyph0-5"
     x="469.90234"
     y="259.8457"
     id="use5057"
     width="504"
     height="504" />
  <use
     style="fill:#000000;fill-opacity:1"
     xlink:href="#glyph0-6"
     x="473.23828"
     y="259.8457"
     id="use5059"
     width="504"
     height="504"
     inkscape:export-filename="/tmp/blah.png"
     inkscape:export-xdpi="530.03613"
     inkscape:export-ydpi="530.03613" />
  <use
     style="fill:#000000;fill-opacity:1"
     xlink:href="#glyph0-4"
     x="477.23438"
     y="259.8457"
     id="use5061"
     width="504"
     height="504"
     inkscape:export-filename="/tmp/blah.png"
     inkscape:export-xdpi="530.03613"
     inkscape:export-ydpi="530.03613" />
  <use
     style="fill:#000000;fill-opacity:1"
     xlink:href="#glyph0-5"
     x="483.90625"
     y="259.8457"
     id="use5063"
     width="504"
     height="504" />
  <use
     style="fill:#000000;fill-opacity:1"
     xlink:href="#glyph0-9"
     x="487.24219"
     y="259.8457"
     id="use5065"
     width="504"
     height="504"
     inkscape:export-filename="/tmp/blah.png"
     inkscape:export-xdpi="530.03613"
     inkscape:export-ydpi="530.03613" />
  <use
     style="fill:#000000;fill-opacity:1"
     xlink:href="#glyph0-2"
     x="493.24219"
     y="259.8457"
     id="use5067"
     width="504"
     height="504"
     inkscape:export-filename="/tmp/blah.png"
     inkscape:export-xdpi="530.03613"
     inkscape:export-ydpi="530.03613" />
  <use
     style="fill:#000000;fill-opacity:1"
     xlink:href="#glyph0-10"
     x="499.24219"
     y="259.8457"
     id="use5069"
     width="504"
     height="504"
     inkscape:export-filename="/tmp/blah.png"
     inkscape:export-xdpi="530.03613"
     inkscape:export-ydpi="530.03613" />
  <use
     style="fill:#000000;fill-opacity:1"
     xlink:href="#glyph0-11"
     x="505.91406"
     y="259.8457"
     id="use5071"
     width="504"
     height="504"
     inkscape:export-filename="/tmp/blah.png"
     inkscape:export-xdpi="530.03613"
     inkscape:export-ydpi="530.03613" />
  <use
     style="fill:#000000;fill-opacity:1"
     xlink:href="#glyph0-11"
     x="509.25"
     y="259.8457"
     id="use5073"
     width="504"
     height="504"
     inkscape:export-filename="/tmp/blah.png"
     inkscape:export-xdpi="530.03613"
     inkscape:export-ydpi="530.03613" />
  <use
     style="fill:#000000;fill-opacity:1"
     xlink:href="#glyph0-3"
     x="512.58594"
     y="259.8457"
     id="use5075"
     width="504"
     height="504"
     inkscape:export-filename="/tmp/blah.png"
     inkscape:export-xdpi="530.03613"
     inkscape:export-ydpi="530.03613" />
  <use
     style="fill:#000000;fill-opacity:1"
     xlink:href="#glyph0-12"
     x="519.25781"
     y="259.8457"
     id="use5077"
     width="504"
     height="504"
     inkscape:export-filename="/tmp/blah.png"
     inkscape:export-xdpi="530.03613"
     inkscape:export-ydpi="530.03613" />
  <use
     style="fill:#000000;fill-opacity:1"
     xlink:href="#glyph0-13"
     x="521.92188"
     y="259.8457"
     id="use5079"
     width="504"
     height="504"
     inkscape:export-filename="/tmp/blah.png"
     inkscape:export-xdpi="530.03613"
     inkscape:export-ydpi="530.03613" />
  <use
     style="fill:#000000;fill-opacity:1"
     xlink:href="#glyph0-9"
     x="528.59375"
     y="259.8457"
     id="use5081"
     width="504"
     height="504"
     inkscape:export-filename="/tmp/blah.png"
     inkscape:export-xdpi="530.03613"
     inkscape:export-ydpi="530.03613" />
  <use
     style="fill:#000000;fill-opacity:1"
     xlink:href="#glyph0-14"
     x="534.59375"
     y="259.8457"
     id="use5083"
     width="504"
     height="504"
     inkscape:export-filename="/tmp/blah.png"
     inkscape:export-xdpi="530.03613"
     inkscape:export-ydpi="530.03613" />
  <use
     style="fill:#000000;fill-opacity:1"
     xlink:href="#glyph1-6"
     x="72.824219"
     y="34.116211"
     id="use5099"
     width="504"
     height="504" />
  <use
     style="fill:#000000;fill-opacity:1"
     xlink:href="#glyph1-6"
     x="90.427734"
     y="34.116211"
     id="use5105"
     width="504"
     height="504" />
  <use
     style="fill:#000000;fill-opacity:1"
     xlink:href="#glyph1-6"
     x="157.67383"
     y="34.116211"
     id="use5125"
     width="504"
     height="504" />
  <use
     style="fill:#000000;fill-opacity:1"
     xlink:href="#glyph1-6"
     x="190.49023"
     y="34.116211"
     id="use5135"
     width="504"
     height="504" />
  <use
     style="fill:#000000;fill-opacity:1"
     xlink:href="#glyph1-6"
     x="249.72656"
     y="34.116211"
     id="use5153"
     width="504"
     height="504" />
  <use
     style="fill:#000000;fill-opacity:1"
     xlink:href="#glyph1-6"
     x="317.78027"
     y="34.116211"
     id="use5169"
     width="504"
     height="504" />
  <use
     style="fill:#000000;fill-opacity:1"
     xlink:href="#glyph1-6"
     x="335.38379"
     y="34.116211"
     id="use5175"
     width="504"
     height="504" />
  <use
     style="fill:#000000;fill-opacity:1"
     xlink:href="#glyph1-6"
     x="381.02148"
     y="34.116211"
     id="use5189"
     width="504"
     height="504" />
  <use
     style="fill:#000000;fill-opacity:1"
     xlink:href="#glyph1-6"
     x="469.05469"
     y="34.116211"
     id="use5213"
     width="504"
     height="504" />
  <g
     id="g20689"
     transform="matrix(1.5405716,0,0,1.5405716,-264.62197,-291.19922)"
     inkscape:export-filename="/tmp/blah.png"
     inkscape:export-xdpi="530.03613"
     inkscape:export-ydpi="530.03613">
    <path
       transform="scale(0.8,0.8)"
       inkscape:connector-curvature="0"
       id="path19909"
       d="m 308.8611,572.66368 241.37884,0 -15.33688,-15.33688"
       style="fill:none;stroke:#000000;stroke-width:3;stroke-linecap:round;stroke-linejoin:round;stroke-miterlimit:4;stroke-opacity:1;stroke-dasharray:none" />
    <path
       sodipodi:nodetypes="cc"
       inkscape:connector-curvature="0"
       id="path19911"
       d="m 440.23462,458.21822 -12.40208,12.29545"
       style="fill:none;stroke:#000000;stroke-width:2.4000001;stroke-linecap:round;stroke-linejoin:round;stroke-miterlimit:4;stroke-opacity:1;stroke-dasharray:none" />
    <rect
       ry="4.1999998"
       y="446.80527"
       x="358.03094"
       height="23.02891"
       width="37.563549"
       id="rect19913"
       style="color:#000000;fill:#6ba224;fill-opacity:1;stroke:none;stroke-width:4;marker:none;visibility:visible;display:inline;overflow:visible;enable-background:accumulate" />
    <rect
       style="color:#000000;fill:#6ba224;fill-opacity:1;stroke:none;stroke-width:4;marker:none;visibility:visible;display:inline;overflow:visible;enable-background:accumulate"
       id="rect20685"
       width="37.563549"
       height="23.02891"
       x="293.51376"
       y="446.80527"
       ry="4.1999998" />
  </g>
  <text
     xml:space="preserve"
     style="font-size:14.39999962px;font-style:normal;font-variant:normal;font-weight:normal;font-stretch:normal;text-align:center;line-height:125%;letter-spacing:0px;word-spacing:0px;text-anchor:middle;fill:#000000;fill-opacity:1;stroke:none;font-family:DejaVu Sans;-inkscape-font-specification:DejaVu Sans"
     x="265.02121"
     y="75.888794"
     id="text20808"
     sodipodi:linespacing="125%"
     inkscape:export-filename="/tmp/blah.png"
     inkscape:export-xdpi="530.03613"
     inkscape:export-ydpi="530.03613"><tspan
       sodipodi:role="line"
       x="265.02121"
       y="75.888794"
       id="tspan20812"
       style="font-weight:bold">Number of scaffolds with multiple members</tspan><tspan
       sodipodi:role="line"
       x="265.02121"
       y="93.888779"
       id="tspan20816"
       style="font-weight:bold">of single orthologous group</tspan></text>
</svg>
