<?xml version="1.0" encoding="UTF-8" standalone="no"?>
<!-- Created with Inkscape (http://www.inkscape.org/) -->

<svg
   xmlns:dc="http://purl.org/dc/elements/1.1/"
   xmlns:cc="http://creativecommons.org/ns#"
   xmlns:rdf="http://www.w3.org/1999/02/22-rdf-syntax-ns#"
   xmlns:svg="http://www.w3.org/2000/svg"
   xmlns="http://www.w3.org/2000/svg"
   xmlns:xlink="http://www.w3.org/1999/xlink"
   xmlns:sodipodi="http://sodipodi.sourceforge.net/DTD/sodipodi-0.dtd"
   xmlns:inkscape="http://www.inkscape.org/namespaces/inkscape"
   width="400"
   height="300"
   id="svg2"
   version="1.1"
   inkscape:version="0.48.5 r10040"
   sodipodi:docname="assembly_vs_annotation.svg">
  <defs
     id="defs4">
    <marker
       inkscape:stockid="TriangleInM"
       orient="auto"
       refY="0.0"
       refX="0.0"
       id="TriangleInM"
       style="overflow:visible">
      <path
         id="path3963"
         d="M 5.77,0.0 L -2.88,5.0 L -2.88,-5.0 L 5.77,0.0 z "
         style="fill-rule:evenodd;stroke:#000000;stroke-width:1.0pt"
         transform="scale(-0.4)" />
    </marker>
    <marker
       inkscape:stockid="TriangleInS"
       orient="auto"
       refY="0.0"
       refX="0.0"
       id="TriangleInS"
       style="overflow:visible">
      <path
         id="path3966"
         d="M 5.77,0.0 L -2.88,5.0 L -2.88,-5.0 L 5.77,0.0 z "
         style="fill-rule:evenodd;stroke:#000000;stroke-width:1.0pt"
         transform="scale(-0.2)" />
    </marker>
    <marker
       inkscape:stockid="Arrow1Sstart"
       orient="auto"
       refY="0.0"
       refX="0.0"
       id="Arrow1Sstart"
       style="overflow:visible">
      <path
         id="path3839"
         d="M 0.0,0.0 L 5.0,-5.0 L -12.5,0.0 L 5.0,5.0 L 0.0,0.0 z "
         style="fill-rule:evenodd;stroke:#000000;stroke-width:1.0pt"
         transform="scale(0.2) translate(6,0)" />
    </marker>
    <marker
       inkscape:stockid="Arrow1Lstart"
       orient="auto"
       refY="0.0"
       refX="0.0"
       id="Arrow1Lstart"
       style="overflow:visible">
      <path
         id="path3827"
         d="M 0.0,0.0 L 5.0,-5.0 L -12.5,0.0 L 5.0,5.0 L 0.0,0.0 z "
         style="fill-rule:evenodd;stroke:#000000;stroke-width:1.0pt"
         transform="scale(0.8) translate(12.5,0)" />
    </marker>
    <marker
       inkscape:stockid="Arrow2Lend"
       orient="auto"
       refY="0.0"
       refX="0.0"
       id="Arrow2Lend"
       style="overflow:visible;">
      <path
         id="path3848"
         style="fill-rule:evenodd;stroke-width:0.62500000;stroke-linejoin:round;"
         d="M 8.7185878,4.0337352 L -2.2072895,0.016013256 L 8.7185884,-4.0017078 C 6.9730900,-1.6296469 6.9831476,1.6157441 8.7185878,4.0337352 z "
         transform="scale(1.1) rotate(180) translate(1,0)" />
    </marker>
    <linearGradient
       inkscape:collect="always"
       x1="252.8"
       y1="272.54"
       gradientTransform="matrix(0.60251,0,0,0.62069,-115.84,356.63)"
       x2="246"
       gradientUnits="userSpaceOnUse"
       y2="287.94"
       id="linearGradient4310">
      <stop
         offset="0"
         style="stop-color:#ffffff"
         id="stop4306" />
      <stop
         offset="1"
         style="stop-color:#ffffff;stop-opacity:0"
         id="stop4308" />
    </linearGradient>
    <linearGradient
       inkscape:collect="always"
       x1="425.75"
       y1="307.22"
       gradientTransform="matrix(0.60251,0,0,0.62069,-115.84,356.63)"
       x2="421.26"
       gradientUnits="userSpaceOnUse"
       y2="327.72"
       id="linearGradient4288">
      <stop
         offset="0"
         style="stop-color:#ffffff"
         id="stop4284" />
      <stop
         offset="1"
         style="stop-color:#ffffff;stop-opacity:0"
         id="stop4286" />
    </linearGradient>
    <linearGradient
       inkscape:collect="always"
       x1="545.92"
       y1="342.31"
       gradientTransform="matrix(0.60251,0,0,0.62069,-115.84,356.63)"
       x2="537.77"
       gradientUnits="userSpaceOnUse"
       y2="362.7"
       id="linearGradient4278">
      <stop
         offset="0"
         style="stop-color:#ffffff"
         id="stop4274" />
      <stop
         offset="1"
         style="stop-color:#ffffff;stop-opacity:0"
         id="stop4276" />
    </linearGradient>
    <filter
       inkscape:collect="always"
       x="-.55641"
       y="-.38975"
       color-interpolation-filters="sRGB"
       width="2.1128"
       height="1.7795"
       id="filter4260">
      <feGaussianBlur
         inkscape:collect="always"
         stdDeviation="2.4794938"
         id="feGaussianBlur4262" />
    </filter>
    <filter
       inkscape:collect="always"
       x="-.24685"
       y="-.47130"
       color-interpolation-filters="sRGB"
       width="1.4937"
       height="1.9426"
       id="filter4238">
      <feGaussianBlur
         inkscape:collect="always"
         stdDeviation="2.9359188"
         id="feGaussianBlur4240" />
    </filter>
    <linearGradient
       inkscape:collect="always"
       x1="585.34"
       y1="233.12"
       gradientTransform="matrix(0.60251,0,0,0.62069,-115.84,356.63)"
       x2="346.13"
       gradientUnits="userSpaceOnUse"
       y2="423.4"
       id="linearGradient3926">
      <stop
         offset="0"
         style="stop-color:#ffffff;stop-opacity:.39592"
         id="stop3922" />
      <stop
         offset="1"
         style="stop-color:#ffffff;stop-opacity:0"
         id="stop3924" />
    </linearGradient>
    <linearGradient
       inkscape:collect="always"
       x1="579.9"
       y1="418.87"
       gradientTransform="matrix(0.60251,0,0,0.62069,-115.84,356.63)"
       x2="487.48"
       gradientUnits="userSpaceOnUse"
       y2="462.37"
       id="linearGradient3914">
      <stop
         offset="0"
         style="stop-color:#b46734"
         id="stop3910" />
      <stop
         offset="1"
         style="stop-color:#b46734;stop-opacity:0"
         id="stop3912" />
    </linearGradient>
    <radialGradient
       inkscape:collect="always"
       r="224.76"
       gradientTransform="matrix(0.66047,0.72564,-0.39418,0.38076,-11.887,158.92)"
       cx="399.12"
       cy="310.91"
       gradientUnits="userSpaceOnUse"
       id="radialGradient3854">
      <stop
         offset="0"
         style="stop-color:#ffb481"
         id="stop3850" />
      <stop
         offset="1"
         style="stop-color:#da8044"
         id="stop3852" />
    </radialGradient>
    <linearGradient
       x1="111.83"
       y1="353.77"
       gradientTransform="matrix(0.98532,0,0,0.98532,206.5,100.64)"
       x2="158"
       gradientUnits="userSpaceOnUse"
       xlink:href="#linearGradient4112"
       y2="354.18"
       id="linearGradient5541" />
    <linearGradient
       x1="111.83"
       y1="353.77"
       gradientTransform="matrix(0.98099,0,0,0.98099,335.02,-177.1)"
       x2="158"
       gradientUnits="userSpaceOnUse"
       xlink:href="#linearGradient5401"
       y2="354.18"
       id="linearGradient5463" />
    <linearGradient
       x1="111.83"
       y1="353.77"
       gradientTransform="matrix(0.98099,0,0,0.98099,278.15,-160.7)"
       x2="158"
       gradientUnits="userSpaceOnUse"
       xlink:href="#linearGradient5401"
       y2="354.18"
       id="linearGradient5461" />
    <linearGradient
       x1="111.83"
       y1="353.77"
       gradientTransform="translate(218.62,-151.89)"
       x2="158"
       gradientUnits="userSpaceOnUse"
       xlink:href="#linearGradient5401"
       y2="354.18"
       id="linearGradient5459" />
    <linearGradient
       x1="111.83"
       y1="353.77"
       gradientTransform="matrix(0.98532,0,0,0.98532,381.02,-159.44)"
       x2="158"
       gradientUnits="userSpaceOnUse"
       xlink:href="#linearGradient5401"
       y2="354.18"
       id="linearGradient5457" />
    <linearGradient
       x1="111.83"
       y1="353.77"
       gradientTransform="matrix(0.98532,0,0,0.98532,324.7,-141.94)"
       x2="158"
       gradientUnits="userSpaceOnUse"
       xlink:href="#linearGradient5401"
       y2="354.18"
       id="linearGradient5455" />
    <linearGradient
       x1="111.83"
       y1="353.77"
       gradientTransform="matrix(1.0236,0,0,1.0236,262.46,-139.73)"
       x2="158"
       gradientUnits="userSpaceOnUse"
       xlink:href="#linearGradient5401"
       y2="354.18"
       id="linearGradient5453" />
    <linearGradient
       x1="111.83"
       y1="353.77"
       gradientTransform="matrix(1.0236,0,0,1.0236,205.05,-123.33)"
       x2="158"
       gradientUnits="userSpaceOnUse"
       xlink:href="#linearGradient5401"
       y2="354.18"
       id="linearGradient5451" />
    <linearGradient
       x1="111.83"
       y1="353.77"
       gradientTransform="translate(160.65,-136.03)"
       x2="158"
       gradientUnits="userSpaceOnUse"
       xlink:href="#linearGradient5401"
       y2="354.18"
       id="linearGradient5449" />
    <linearGradient
       x1="111.83"
       y1="353.77"
       gradientTransform="matrix(0.98099,0,0,0.98099,-297.53,-179.41)"
       x2="158"
       gradientUnits="userSpaceOnUse"
       xlink:href="#linearGradient4573"
       y2="354.18"
       id="linearGradient5289" />
    <linearGradient
       x1="111.83"
       y1="353.77"
       gradientTransform="matrix(0.98099,0,0,0.98099,-354.4,-163.01)"
       x2="158"
       gradientUnits="userSpaceOnUse"
       xlink:href="#linearGradient4573"
       y2="354.18"
       id="linearGradient5287" />
    <linearGradient
       x1="111.83"
       y1="353.77"
       gradientTransform="translate(-413.93,-154.2)"
       x2="158"
       gradientUnits="userSpaceOnUse"
       xlink:href="#linearGradient4573"
       y2="354.18"
       id="linearGradient5285" />
    <linearGradient
       x1="111.83"
       y1="353.77"
       gradientTransform="matrix(0.98532,0,0,0.98532,-251.53,-161.75)"
       x2="158"
       gradientUnits="userSpaceOnUse"
       xlink:href="#linearGradient4573"
       y2="354.18"
       id="linearGradient5283" />
    <linearGradient
       x1="111.83"
       y1="353.77"
       gradientTransform="matrix(0.98532,0,0,0.98532,-307.85,-144.25)"
       x2="158"
       gradientUnits="userSpaceOnUse"
       xlink:href="#linearGradient4573"
       y2="354.18"
       id="linearGradient5281" />
    <linearGradient
       x1="111.83"
       y1="353.77"
       gradientTransform="matrix(1.0236,0,0,1.0236,-370.09,-142.04)"
       x2="158"
       gradientUnits="userSpaceOnUse"
       xlink:href="#linearGradient4573"
       y2="354.18"
       id="linearGradient5279" />
    <linearGradient
       x1="111.83"
       y1="353.77"
       gradientTransform="matrix(1.0236,0,0,1.0236,-427.5,-125.64)"
       x2="158"
       gradientUnits="userSpaceOnUse"
       xlink:href="#linearGradient4573"
       y2="354.18"
       id="linearGradient5277" />
    <linearGradient
       x1="111.83"
       y1="353.77"
       gradientTransform="translate(-471.89,-138.34)"
       x2="158"
       gradientUnits="userSpaceOnUse"
       xlink:href="#linearGradient4573"
       y2="354.18"
       id="linearGradient5275" />
    <linearGradient
       x1="111.83"
       y1="353.77"
       gradientTransform="matrix(0.98532,0,0,0.98532,211.62,-189.64)"
       x2="158"
       gradientUnits="userSpaceOnUse"
       xlink:href="#linearGradient4112"
       y2="354.18"
       id="linearGradient4885" />
    <linearGradient
       x1="111.83"
       y1="353.77"
       x2="158"
       gradientUnits="userSpaceOnUse"
       xlink:href="#linearGradient4112"
       y2="354.18"
       id="linearGradient4877" />
    <linearGradient
       id="linearGradient4112">
      <stop
         offset="0"
         stop-color="#800000"
         id="stop4114" />
      <stop
         offset=".61238"
         stop-color="#ff4614"
         id="stop4120" />
      <stop
         offset="1"
         stop-color="#d40000"
         id="stop4116" />
    </linearGradient>
    <linearGradient
       id="linearGradient4573">
      <stop
         offset="0"
         stop-color="#e06700"
         id="stop4575" />
      <stop
         offset=".61238"
         stop-color="#ecde39"
         id="stop4577" />
      <stop
         offset="1"
         stop-color="#faa900"
         id="stop4579" />
    </linearGradient>
    <linearGradient
       id="linearGradient5401">
      <stop
         offset="0"
         stop-color="#1d6a1d"
         id="stop5403" />
      <stop
         offset=".61238"
         stop-color="#2edd2e"
         id="stop5405" />
      <stop
         offset="1"
         stop-color="#1dbd1d"
         id="stop5407" />
    </linearGradient>
    <linearGradient
       inkscape:collect="always"
       xlink:href="#linearGradient4112"
       id="linearGradient6324"
       gradientUnits="userSpaceOnUse"
       x1="111.83"
       y1="353.77"
       x2="158"
       y2="354.18" />
    <linearGradient
       inkscape:collect="always"
       xlink:href="#linearGradient4112"
       id="linearGradient6326"
       gradientUnits="userSpaceOnUse"
       x1="111.83"
       y1="353.77"
       x2="158"
       y2="354.18" />
    <linearGradient
       inkscape:collect="always"
       xlink:href="#linearGradient4112"
       id="linearGradient6328"
       gradientUnits="userSpaceOnUse"
       x1="111.83"
       y1="353.77"
       x2="158"
       y2="354.18" />
    <linearGradient
       inkscape:collect="always"
       xlink:href="#linearGradient4112"
       id="linearGradient6330"
       gradientUnits="userSpaceOnUse"
       x1="111.83"
       y1="353.77"
       x2="158"
       y2="354.18" />
    <linearGradient
       inkscape:collect="always"
       xlink:href="#linearGradient4112"
       id="linearGradient6332"
       gradientUnits="userSpaceOnUse"
       x1="111.83"
       y1="353.77"
       x2="158"
       y2="354.18" />
    <linearGradient
       inkscape:collect="always"
       xlink:href="#linearGradient4112"
       id="linearGradient6334"
       gradientUnits="userSpaceOnUse"
       x1="111.83"
       y1="353.77"
       x2="158"
       y2="354.18" />
    <linearGradient
       inkscape:collect="always"
       xlink:href="#linearGradient4112"
       id="linearGradient6336"
       gradientUnits="userSpaceOnUse"
       x1="111.83"
       y1="353.77"
       x2="158"
       y2="354.18" />
    <linearGradient
       inkscape:collect="always"
       xlink:href="#linearGradient4112"
       id="linearGradient6338"
       gradientUnits="userSpaceOnUse"
       x1="111.83"
       y1="353.77"
       x2="158"
       y2="354.18" />
    <linearGradient
       inkscape:collect="always"
       xlink:href="#linearGradient4112"
       id="linearGradient6340"
       gradientUnits="userSpaceOnUse"
       x1="111.83"
       y1="353.77"
       x2="158"
       y2="354.18" />
    <linearGradient
       inkscape:collect="always"
       xlink:href="#linearGradient4112"
       id="linearGradient6342"
       gradientUnits="userSpaceOnUse"
       x1="111.83"
       y1="353.77"
       x2="158"
       y2="354.18" />
    <linearGradient
       inkscape:collect="always"
       xlink:href="#linearGradient4112"
       id="linearGradient6344"
       gradientUnits="userSpaceOnUse"
       x1="111.83"
       y1="353.77"
       x2="158"
       y2="354.18" />
    <linearGradient
       inkscape:collect="always"
       xlink:href="#linearGradient4112"
       id="linearGradient6346"
       gradientUnits="userSpaceOnUse"
       x1="111.83"
       y1="353.77"
       x2="158"
       y2="354.18" />
    <linearGradient
       inkscape:collect="always"
       xlink:href="#linearGradient4112"
       id="linearGradient6348"
       gradientUnits="userSpaceOnUse"
       x1="111.83"
       y1="353.77"
       x2="158"
       y2="354.18" />
  </defs>
  <sodipodi:namedview
     id="base"
     pagecolor="#ffffff"
     bordercolor="#666666"
     borderopacity="1.0"
     inkscape:pageopacity="0.0"
     inkscape:pageshadow="2"
     inkscape:zoom="1.313597"
     inkscape:cx="84.269001"
     inkscape:cy="226.06866"
     inkscape:document-units="px"
     inkscape:current-layer="layer1"
     showgrid="false"
     width="400px"
     showguides="false"
     inkscape:guide-bbox="true"
     inkscape:window-width="1547"
     inkscape:window-height="1041"
     inkscape:window-x="369"
     inkscape:window-y="18"
     inkscape:window-maximized="0">
    <sodipodi:guide
       orientation="1,0"
       position="19.192898,263.14474"
       id="guide5395" />
    <sodipodi:guide
       orientation="1,0"
       position="63.946553,12.180296"
       id="guide6350" />
  </sodipodi:namedview>
  <metadata
     id="metadata7">
    <rdf:RDF>
      <cc:Work
         rdf:about="">
        <dc:format>image/svg+xml</dc:format>
        <dc:type
           rdf:resource="http://purl.org/dc/dcmitype/StillImage" />
        <dc:title></dc:title>
      </cc:Work>
    </rdf:RDF>
  </metadata>
  <g
     inkscape:label="Layer 1"
     inkscape:groupmode="layer"
     id="layer1"
     transform="translate(0,-752.3622)">
    <g
       id="g5476"
       transform="matrix(0.76965908,0,0,0.76965908,81.446124,259.25912)"
       inkscape:export-filename="/tmp/annotation.png"
       inkscape:export-xdpi="1000.1824"
       inkscape:export-ydpi="1000.1824">
      <path
         inkscape:connector-curvature="0"
         id="path3821"
         d="m 106.06602,950.33679 0,28.78935 c 0,0 -0.50508,8.08122 8.08122,8.08122 8.58629,0 43.94163,0 43.94163,0"
         style="fill:none;stroke:#000000;stroke-width:7.79565954;stroke-linecap:butt;stroke-linejoin:miter;stroke-miterlimit:4;stroke-opacity:1;stroke-dasharray:none;marker-start:url(#TriangleInM);marker-end:none" />
      <text
         sodipodi:linespacing="125%"
         id="text5387"
         y="993.77338"
         x="262.13458"
         style="font-size:13px;font-style:normal;font-variant:normal;font-weight:normal;font-stretch:normal;text-align:center;line-height:125%;letter-spacing:0px;word-spacing:0px;text-anchor:middle;fill:#000000;fill-opacity:1;stroke:none;font-family:Droid Sans;-inkscape-font-specification:Droid Sans"
         xml:space="preserve"><tspan
           style="font-size:20px"
           y="993.77338"
           x="262.13458"
           id="tspan5389"
           sodipodi:role="line">This is a gene! Hooray!</tspan></text>
    </g>
    <g
       id="g5438"
       transform="translate(0,95.936108)"
       inkscape:export-filename="/tmp/annotation.png"
       inkscape:export-xdpi="1000.1824"
       inkscape:export-ydpi="1000.1824">
      <g
         id="g5440"
         transform="matrix(0.7627991,0,0,0.7627991,93.861147,191.95871)">
        <rect
           y="867.82916"
           x="85.862968"
           height="25.25382"
           width="252.03307"
           id="rect5442"
           style="opacity:0.58800001;color:#000000;fill:#ca8888;fill-opacity:1;fill-rule:nonzero;stroke:none;stroke-width:4;marker:none;visibility:visible;display:inline;overflow:visible;enable-background:accumulate" />
        <text
           xml:space="preserve"
           style="font-size:13px;font-style:normal;font-variant:normal;font-weight:normal;font-stretch:normal;text-align:center;line-height:125%;letter-spacing:0px;word-spacing:0px;text-anchor:middle;fill:#000000;fill-opacity:1;stroke:none;font-family:Droid Sans;-inkscape-font-specification:Droid Sans"
           x="200"
           y="862.07648"
           id="text5444"
           sodipodi:linespacing="125%"><tspan
             sodipodi:role="line"
             id="tspan5446"
             x="200"
             y="862.07648"
             style="font-size:20px;font-style:normal;font-variant:normal;font-weight:normal;font-stretch:normal;fill:#000000;fill-opacity:1;font-family:Droid Sans Mono;-inkscape-font-specification:Droid Sans Mono">...CGCACCCTGTGTATAACACCTACCA...</tspan><tspan
             id="tspan5448"
             sodipodi:role="line"
             x="200"
             y="887.07648"
             style="font-size:20px;font-style:normal;font-variant:normal;font-weight:normal;font-stretch:normal;fill:#000000;fill-opacity:1;font-family:Droid Sans Mono;-inkscape-font-specification:Droid Sans Mono"><tspan
               id="tspan5450"
               style="opacity:0.58823529">...GAC</tspan><tspan
               style="font-weight:bold"
               id="tspan6374">ATGTAAGAGTCCAACAGTTGA</tspan><tspan
               id="tspan5452"
               style="opacity:0.58800001">A...</tspan></tspan></text>
      </g>
    </g>
    <g
       id="g5408"
       transform="matrix(0.7627991,0,0,0.7627991,93.861147,184.42254)"
       inkscape:export-filename="/tmp/assembly.png"
       inkscape:export-xdpi="1000.1824"
       inkscape:export-ydpi="1000.1824">
      <text
         xml:space="preserve"
         style="font-size:13px;font-style:normal;font-variant:normal;font-weight:normal;font-stretch:normal;text-align:center;line-height:125%;letter-spacing:0px;word-spacing:0px;text-anchor:middle;opacity:0.85067875;fill:#000000;fill-opacity:1;stroke:none;font-family:Droid Sans;-inkscape-font-specification:Droid Sans"
         x="200"
         y="862.07648"
         id="text2993"
         sodipodi:linespacing="125%"><tspan
           sodipodi:role="line"
           id="tspan2995"
           x="200"
           y="862.07648"
           style="font-size:20px;font-style:normal;font-variant:normal;font-weight:normal;font-stretch:normal;fill:#000000;fill-opacity:1;font-family:Droid Sans Mono;-inkscape-font-specification:Droid Sans Mono">...CGCACCCTGTGTATAACACCTACCA...</tspan><tspan
           id="tspan5403"
           sodipodi:role="line"
           x="200"
           y="887.07648"
           style="font-size:20px;font-style:normal;font-variant:normal;font-weight:normal;font-stretch:normal;fill:#000000;fill-opacity:1;font-family:Droid Sans Mono;-inkscape-font-specification:Droid Sans Mono">...GACATGTAAGAGTCCAACAGTTGAA...</tspan></text>
    </g>
    <text
       xml:space="preserve"
       style="font-size:11.2498951px;font-style:normal;font-variant:normal;font-weight:normal;font-stretch:normal;text-align:center;line-height:125%;letter-spacing:0px;word-spacing:0px;text-anchor:middle;fill:#000000;fill-opacity:1;stroke:none;font-family:Droid Sans;-inkscape-font-specification:Droid Sans"
       x="88.473526"
       y="842.12122"
       id="text5417"
       sodipodi:linespacing="125%"
       inkscape:export-filename="/tmp/assembly.png"
       inkscape:export-xdpi="1000.1824"
       inkscape:export-ydpi="1000.1824"><tspan
         sodipodi:role="line"
         id="tspan5419"
         x="88.473526"
         y="842.12122"
         style="font-size:12.11527157px;font-weight:bold">chr I</tspan></text>
    <text
       sodipodi:linespacing="125%"
       id="text5421"
       y="861.05243"
       x="86.200684"
       style="font-size:11.2498951px;font-style:normal;font-variant:normal;font-weight:normal;font-stretch:normal;text-align:center;line-height:125%;letter-spacing:0px;word-spacing:0px;text-anchor:middle;fill:#000000;fill-opacity:1;stroke:none;font-family:Droid Sans;-inkscape-font-specification:Droid Sans"
       xml:space="preserve"
       inkscape:export-filename="/tmp/assembly.png"
       inkscape:export-xdpi="1000.1824"
       inkscape:export-ydpi="1000.1824"><tspan
         style="font-size:12.11527157px;font-weight:bold"
         y="861.05243"
         x="86.200684"
         id="tspan5423"
         sodipodi:role="line">chr II</tspan></text>
    <path
       sodipodi:nodetypes="cc"
       style="fill:none;stroke:#000000;stroke-width:2;stroke-linecap:round;stroke-linejoin:miter;stroke-miterlimit:4;stroke-opacity:1;stroke-dasharray:none"
       d="m 71.05535,818.55186 313.30769,0"
       id="path5481"
       inkscape:connector-curvature="0"
       inkscape:export-filename="/tmp/assembly.png"
       inkscape:export-xdpi="1000.1824"
       inkscape:export-ydpi="1000.1824" />
    <text
       sodipodi:linespacing="125%"
       id="text5483"
       y="814.51123"
       x="113.61931"
       style="font-size:13px;font-style:normal;font-variant:normal;font-weight:normal;font-stretch:normal;text-align:center;line-height:125%;letter-spacing:0px;word-spacing:0px;text-anchor:middle;fill:#000000;fill-opacity:1;stroke:none;font-family:Droid Sans;-inkscape-font-specification:Droid Sans"
       xml:space="preserve"
       inkscape:export-filename="/tmp/assembly.png"
       inkscape:export-xdpi="1000.1824"
       inkscape:export-ydpi="1000.1824"><tspan
         style="font-size:20px"
         y="814.51123"
         x="113.61931"
         id="tspan5485"
         sodipodi:role="line">Assembly</tspan></text>
    <text
       sodipodi:linespacing="125%"
       id="text6366"
       y="945.64368"
       x="88.473526"
       style="font-size:11.2498951px;font-style:normal;font-variant:normal;font-weight:normal;font-stretch:normal;text-align:center;line-height:125%;letter-spacing:0px;word-spacing:0px;text-anchor:middle;fill:#000000;fill-opacity:1;stroke:none;font-family:Droid Sans;-inkscape-font-specification:Droid Sans"
       xml:space="preserve"
       inkscape:export-filename="/tmp/annotation.png"
       inkscape:export-xdpi="1000.1824"
       inkscape:export-ydpi="1000.1824"><tspan
         style="font-size:12.11527157px;font-weight:bold"
         y="945.64368"
         x="88.473526"
         id="tspan6368"
         sodipodi:role="line">chr I</tspan></text>
    <text
       xml:space="preserve"
       style="font-size:11.2498951px;font-style:normal;font-variant:normal;font-weight:normal;font-stretch:normal;text-align:center;line-height:125%;letter-spacing:0px;word-spacing:0px;text-anchor:middle;fill:#000000;fill-opacity:1;stroke:none;font-family:Droid Sans;-inkscape-font-specification:Droid Sans"
       x="86.200684"
       y="964.57489"
       id="text6370"
       sodipodi:linespacing="125%"
       inkscape:export-filename="/tmp/annotation.png"
       inkscape:export-xdpi="1000.1824"
       inkscape:export-ydpi="1000.1824"><tspan
         sodipodi:role="line"
         id="tspan6372"
         x="86.200684"
         y="964.57489"
         style="font-size:12.11527157px;font-weight:bold">chr II</tspan></text>
    <path
       inkscape:connector-curvature="0"
       id="path5489"
       d="m 71.05535,924.98593 313.30769,0"
       style="fill:none;stroke:#000000;stroke-width:2;stroke-linecap:round;stroke-linejoin:miter;stroke-miterlimit:4;stroke-opacity:1;stroke-dasharray:none"
       sodipodi:nodetypes="cc"
       inkscape:export-filename="/tmp/annotation.png"
       inkscape:export-xdpi="1000.1824"
       inkscape:export-ydpi="1000.1824" />
    <text
       xml:space="preserve"
       style="font-size:13px;font-style:normal;font-variant:normal;font-weight:normal;font-stretch:normal;text-align:center;line-height:125%;letter-spacing:0px;word-spacing:0px;text-anchor:middle;fill:#000000;fill-opacity:1;stroke:none;font-family:Droid Sans;-inkscape-font-specification:Droid Sans"
       x="122.14684"
       y="920.94531"
       id="text5491"
       sodipodi:linespacing="125%"
       inkscape:export-filename="/tmp/annotation.png"
       inkscape:export-xdpi="1000.1824"
       inkscape:export-ydpi="1000.1824"><tspan
         sodipodi:role="line"
         id="tspan5493"
         x="122.14684"
         y="920.94531"
         style="font-size:20px">Annotation</tspan></text>
    <g
       id="g5990"
       transform="matrix(0.18054828,0,0,0.18054828,10.151627,916.39599)"
       inkscape:export-filename="/tmp/annotation.png"
       inkscape:export-xdpi="1000.1824"
       inkscape:export-ydpi="1000.1824">
      <g
         transform="translate(0,-465)"
         inkscape:label="PencilLower"
         id="layer4">
        <path
           d="m 11.857,523.4 c 4.8765,5.6243 9.4222,11.79 14.498,17.088 10.218,2.8607 20.431,5.7445 30.653,8.5931 1.0491,-3.9165 1.5528,-8.4347 -0.52717,-12.104 6.2909,0.45279 12.225,-2.001 17.887,-4.4997 -21.594,-3.7807 -43.177,-7.6188 -64.714,-11.735 l 2.2029,2.6546 z"
           inkscape:connector-curvature="0"
           style="fill:#000000"
           id="path4290" />
        <path
           d="m 13.87,522.86 13.895,16.701 29.448,8.2628 c 0.14153,-0.58828 0.27525,-1.2016 0.37676,-1.8602 0.48955,-3.1924 0.31234,-7.0099 -2.2406,-9.6403 l -0.6402,-0.65861 0.90379,0.15093 c 5.1196,0.78467 10.036,-0.4022 14.065,-1.9809 0.48462,-0.20152 0.95513,-0.40218 1.4121,-0.57798 -8.294,-1.463 -31.745,-5.6057 -31.745,-5.6057 l -25.475,-4.7711 z"
           inkscape:connector-curvature="0"
           style="fill:#ffb380"
           id="path3880" />
        <path
           d="m 27.467,538.45 -2.1837,-7.3111 1.3648,-0.56342 v -1.9658 l 3.7359,-2.2825 -16.292,-3.3434 z"
           inkscape:connector-curvature="0"
           style="fill:#ffe8d8"
           sodipodi:nodetypes="ccccccc"
           id="path4294" />
        <path
           d="m 16.569,526.64 c 0,0 6.5625,-2.7853 2.3162,-3.3785 -4.2463,-0.59344 -6.5625,-1.1915 -6.5625,-1.1915 z"
           inkscape:connector-curvature="0"
           style="fill:#000000"
           id="path4296" />
        <path
           d="m 38.932,537.61 -13.102,-2.5289 1.9107,4.2181 8.7349,2.5289 z"
           inkscape:connector-curvature="0"
           style="fill:#b2632e"
           id="path4298" />
        <path
           d="m 41.116,530.01 -12.829,-1.9708 3.5485,-1.9658 12.556,2.2473 z"
           inkscape:connector-curvature="0"
           style="fill:#ffa162"
           id="path4300" />
        <path
           d="m 28.832,528.61 10.1,2.2472 -4.0945,4.7813 -8.4619,-2.2524 1.9108,-1.6892 z"
           inkscape:connector-curvature="0"
           style="fill:url(#linearGradient4310)"
           sodipodi:nodetypes="cccccc"
           id="path4302" />
      </g>
      <g
         transform="translate(0,-465)"
         inkscape:label="OutLine"
         id="layer2">
        <path
           d="m 88.883,479.96 c -7.627,-0.45279 -11.326,7.8022 -15.375,12.928 -8.4504,10.632 -19.638,18.702 -29.267,28.193 -1.4504,2.549 -1.2223,6.0547 -3.9917,7.6616 -4.6457,6.4403 -8.488,13.631 -14.603,18.852 -6.504,6.4363 -15.426,9.6352 -13.867,19.745 1.7442,9.4709 12.608,18.925 19.172,24.501 10.738,8.493 26.352,12.779 34.56,24.129 13.07,20.204 19.432,41.505 40.039,54.827 10.262,4.6153 32.66,7.8887 48.129,17.06 9.0983,8.1165 21.78,34.955 30.938,42.929 8.8728,5.7857 9.6688,5.9848 19.74,6.0255 28.681,-0.72378 57.485,-5.1648 84.578,-14.957 4.7762,-2.1267 8.9001,-8.376 5.7427,-13.539 -5.424,-9.8897 -15.304,-15.703 -23.323,-23.127 -9.9562,-8.0908 -18.951,-17.412 -26.312,-28.047 -11.754,-13.725 -22.711,-28.667 -29.388,-45.77 -5.8312,-17.057 -9.6724,-34.819 -14.095,-52.357 -4.0876,-16.924 -7.6303,-34.095 -12.83,-50.658 -5.4148,-10.115 -19.381,-14.339 -29.034,-8.2432 -21.03,-6.4956 -42.721,-11.33 -63.377,-19.203 -2.4216,-0.63373 -4.9259,-1.0558 -7.4372,-0.95017 z m 8.9435,51.148 c 3.1764,1.9054 7.9941,2.0161 8.9266,6.3569 1.9911,2.9612 2.6761,7.0889 0.0358,9.9169 -4.8698,9.0471 -15.539,12.913 -25.117,11.251 -3.0787,-0.4528 -7.1035,-1.3273 -9.2636,-2.6797 10.753,-5.4006 17.197,-16.149 24.835,-25.157 l 0.53543,0.30186 0.04829,0.0171 z"
           inkscape:connector-curvature="0"
           style="fill:#482915"
           sodipodi:nodetypes="ccccccccccccccccccccccccccccccc"
           id="path3928" />
        <path
           d="m 87.772,483.49 c -6.1929,0.0429 -7.9973,7.3664 -11.746,11.08 -8.2335,10.005 -17.9,18.52 -27.906,26.549 -1.6668,1.7898 -3.0945,4.379 -2.3912,6.8857 -5.4476,3.0719 -6.8214,10.066 -11.259,14.276 -5.5805,7.6087 -14.219,13.197 -17.68,22.325 -2.1228,6.0532 8.939,12.565 14.365,15.744 12.762,10.54 28.539,18.214 40.371,29.787 11.119,16.041 9.8891,28.784 22.871,43.279 16.555,19.876 61.704,19.17 69.421,26.965 15.144,18.397 22.397,46.024 39.285,49.26 25.43,4.8716 50.236,-1.0106 75.076,-8.294 4.7442,-1.5686 10.944,-2.8556 13.318,-7.8138 0.58828,-5.1106 -4.3907,-8.6147 -7.2549,-12.024 -13.412,-12.861 -29.616,-22.832 -39.789,-38.878 -7.6564,-9.5322 -16.211,-18.268 -21.868,-29.283 -6.0984,-9.2497 -11.364,-19.165 -13.859,-30.152 -8.782,-30.112 -15.006,-61.057 -22.95,-91.426 -3.8768,-9.9822 -17.587,-14.506 -26.059,-7.8169 -20.153,-6.5439 -41.065,-10.451 -60.752,-18.414 -3.605,-1.1865 -7.3472,-2.2725 -11.192,-2.0462 z m 10.073,34.002 c 4.453,2.6495 9.4314,4.2885 14.291,6.0517 2.8558,7.8616 6.7123,16.986 2.5418,25.099 -6.7572,14.47 -25.027,19.642 -39.107,14.877 -6.0012,-1.7998 -11.552,-4.927 -16.475,-8.8063 2.99e-4,-6.7162 -0.73537,-13.513 -3.0879,-19.804 7.4493,2.8557 15.773,1.2217 22.5,-2.6747 7.1788,-3.6148 13.793,-8.6474 18.923,-14.994 z"
           inkscape:connector-curvature="0"
           style="fill:#b46734"
           sodipodi:nodetypes="ccccccccccscccccccccccccccccccc"
           id="path3838" />
        <path
           inkscape:connector-curvature="0"
           style="fill:url(#radialGradient3854)"
           d="m 195.79,720 c 0,0 -18.304,-48.445 -22.896,-53.965 -10.118,-12.162 -57.939,2.8419 -73.225,-17.97 -15.284,-20.81 -17.807,-36.578 -22.175,-41.64 -4.3674,-5.0612 -38.029,-25.893 -46.218,-32.642 -8.189,-6.7489 -11.722,-11.711 -6.8087,-16.772 4.9134,-5.0617 14.74,-15.747 18.016,-21.934 3.2756,-6.1864 8.189,-8.4362 11.465,1.1262 3.2756,9.561 -6.4991,13.103 -6.4991,13.103 0,3.8619 27.244,25.828 47.99,17.267 19.913,-8.2176 26.205,-22.496 22.383,-33.744 l -3.8215,-11.248 c 0,0 -15.286,-5.0617 -16.924,-7.8736 -9.2808,12.935 -25.659,20.246 -32.21,20.246 -6.5512,0 -13.648,-3.3735 -16.378,-6.1864 -2.7297,-2.8104 4.9134,-7.8737 9.8268,-11.811 4.9134,-3.9366 21.291,-20.246 24.021,-25.87 2.7297,-5.6238 7.643,-5.6238 23.475,0.56343 15.832,6.1864 51.863,14.06 54.593,16.309 5.4593,-6.749 20.745,-4.4996 24.021,8.4363 3.2756,12.935 21.291,93.921 27.842,105.17 6.5511,11.248 13.648,24.746 23.475,35.431 9.8268,10.686 6.5512,9.5609 17.47,21.371 10.919,11.811 33.302,25.871 36.031,34.869 -26.752,1.1212 -81.137,21.369 -93.454,7.7639 z"
           sodipodi:nodetypes="cssssssscssccssssscsssscc"
           id="path3842" />
        <path
           d="m 57.767,555.6 c 0,0 -8.4884,0.19553 -12.157,-8.7734 3.5485,-10.686 5.8792,-16.535 7.517,-13.441 1.6378,3.092 6.2782,17.153 4.6404,22.215 z"
           inkscape:connector-curvature="0"
           style="fill:#b46734"
           sodipodi:nodetypes="ccsc"
           id="path3900" />
        <path
           d="m 97.346,514.55 c 0,0 -3.2756,-4.7813 -4.9134,-10.123 -7.3701,13.498 -38.488,25.87 -40.945,26.151 10.646,4.4996 6.5512,4.4996 14.74,3.655 6.9831,-0.71863 19.654,-4.7812 31.118,-19.684 z"
           inkscape:connector-curvature="0"
           style="fill:#b46734"
           sodipodi:nodetypes="cccsc"
           id="path3902" />
        <path
           d="m 114.49,576.4 c 18.168,-3.9165 30.346,-21.881 21.62,-39.641 -4.9922,-10.16 -21.291,-40.493 -18.835,-26.995 2.4567,13.498 -2.7297,8.7173 -2.7297,8.7173 l -20.199,-8.7173 c 0,0 1.0918,6.186 4.9134,7.5922 3.8215,1.4077 14.467,4.4996 14.467,4.4996 0,0 6.0052,14.341 4.3674,19.403 -1.6378,5.0618 -12.01,20.246 -16.378,21.653 -4.3674,1.4077 -31.911,0.73923 -31.911,0.73923 12.509,4.3941 13.898,19.385 44.685,12.749 z"
           inkscape:connector-curvature="0"
           style="fill:#b46734"
           sodipodi:nodetypes="sssccscsscs"
           id="path3904" />
        <path
           d="m 160.95,513.7 c 0,0 -7.0971,-8.9988 -12.01,-2.8104 -4.9134,6.1865 0.546,10.686 0.546,10.686 0,0 36.031,94.483 40.399,107.98 4.3674,13.498 13.102,28.12 20.745,34.869 7.643,6.7485 46.404,50.053 50.226,51.741 3.8215,1.6892 29.658,0.53769 28.934,-3.9366 -1.092,-6.749 -24.294,-24.746 -30.299,-30.37 -6.0052,-5.6238 -21.564,-21.934 -31.391,-35.994 -9.8268,-14.06 -17.743,-28.963 -19.926,-38.524 -2.1837,-9.5609 -21.564,-83.517 -22.656,-88.578 -1.0919,-5.0618 -3.2756,-11.811 -9.8268,-11.811 -6.5512,0 -14.74,-1.1211 -14.74,6.749 z"
           inkscape:connector-curvature="0"
           style="fill:url(#linearGradient3914)"
           sodipodi:nodetypes="cscsssssssssc"
           id="path3906" />
        <path
           d="m 102.53,581.75 c 0,0 26.751,-0.56343 32.756,-19.122 6.0052,-18.559 13.648,-37.119 18.016,-12.373 4.3674,24.746 25.659,75.362 30.026,87.172 4.3674,11.81 -26.751,-6.7485 -41.491,-20.809 -14.74,-14.0605 -64.966,-33.181 -39.307,-34.869 z"
           inkscape:connector-curvature="0"
           style="opacity:0.61224;fill:url(#linearGradient3926)"
           id="path3916" />
        <path
           d="m 54.491,534.23 c 0,0 7.507,9.7149 5.3503,21.245 -3.5485,-0.56341 -14.277,-5.1177 -14.55,-7.9306 -0.27281,-2.8104 4.3269,-13.877 5.4188,-14.721 -2.7297,-2.8104 -3.0431,-3.3735 -3.0431,-3.3735 l 0.54596,-1.9658 c 0,0 4.0945,4.2181 7.37,4.2181 3.2756,0 16.651,-3.0919 21.018,-4.4996 4.3674,-1.4077 5.7323,3.092 5.7323,3.092 0,0 -6.2782,4.7813 -14.467,4.7813 -5.1863,0 -13.375,-0.8447 -13.375,-0.8447 z"
           inkscape:connector-curvature="0"
           style="fill:#6f3f20"
           sodipodi:nodetypes="ccscccsscscc"
           id="path4314" />
        <path
           transform="translate(0,465)"
           inkscape:connector-curvature="0"
           sodipodi:nodetypes="ccccscsc"
           d="m 83.417,93.719 c 0,0 24.623,17.337 27.136,20.854 43.13,36.818 97.056,64.325 138.19,83.417 -9.6059,-12.621 -29.155,-36.441 -31.658,-47.739 -11.055,-0.50251 -78.392,-43.719 -83.417,-45.226 -5.0251,-1.5075 -20.1,-8.0402 -20.1,-8.0402 0,0 -18.886,-2.1621 -21.106,-2.5126 -4.7739,-0.75377 -9.0452,-0.75377 -9.0452,-0.75377 z"
           style="opacity:0.45306014;fill:#000000"
           id="path4362" />
      </g>
      <g
         transform="translate(0,-465)"
         inkscape:label="Pencil"
         id="layer3">
        <path
           d="m 74.568,533.78 c -5.9742,3.1322 -13.256,1.6288 -19.718,0.88482 3.3087,4.555 3.5706,10.974 4.1987,16.196 62.318,17.483 123.47,34.203 185.79,51.672 16.582,-7.8702 23.889,-18.705 17.308,-37.508 -62.51,-11.2 -122.8,-20.94 -185.33,-32 z"
           inkscape:connector-curvature="0"
           style="fill:#000000"
           sodipodi:nodetypes="ccccccc"
           id="path3891" />
        <path
           d="m 72.311,535.07 c -6.169,1.7647 -11.578,-0.59344 -17.623,-0.87481 1.6811,2.3982 4.4118,11.466 3.9595,13.881 l 184.52,48.156 c 0,0 25.037,-7.3859 13.456,-27.27 -21.96,-3.99 -139.35,-25.95 -184.32,-33.89 z"
           inkscape:connector-curvature="0"
           style="fill:#ffb380"
           sodipodi:nodetypes="cccccc"
           id="path3857" />
        <path
           d="m 212.71,557.84 c -11.316,0.70405 -15.781,7.1768 -17.24,13.262 -1.7748,7.4046 1.1536,12.266 5.2333,17.559 l 43.878,12.157 c 0,0 27.383,-14.642 15.802,-34.526 -6.8082,-1.2368 -24.629,-4.3639 -47.673,-8.4523 z"
           inkscape:connector-curvature="0"
           style="fill:#000000"
           sodipodi:nodetypes="cscccc"
           id="path3865" />
        <path
           d="m 245.63,598.35 c 2.8444,1.5506 24.755,-11.801 14.113,-30.703 -23.071,-0.70836 -15.48,25.67 -14.113,30.703 z"
           inkscape:connector-curvature="0"
           style="fill:#d35f5f"
           sodipodi:nodetypes="ccc"
           id="path3859" />
        <path
           d="m 224.64,592.75 18.43,4.8264 c 0,0 -7.497,-24.779 9.0589,-30.571 -22.803,-2.8959 -22.491,-2.5742 -22.491,-2.5742 0,0 -12.807,8.3669 -4.998,28.319 z"
           inkscape:connector-curvature="0"
           style="fill:#de8787"
           sodipodi:nodetypes="ccccc"
           id="path3861" />
        <path
           d="m 222.14,591.79 -19.992,-4.8264 c 0,0 -14.369,-18.665 5.9351,-26.71 17.493,2.8958 19.68,3.5393 19.68,3.5393 0,0 -14.369,8.0446 -5.6228,27.996 z"
           inkscape:connector-curvature="0"
           style="fill:#b3b3b3"
           id="path3863" />
        <path
           d="m 57.717,542.43 137.38,33.168 c 0,0 0.19621,5.4494 4.5637,10.23 -25.659,-6.749 -140.98,-37.472 -140.98,-37.472 0.04413,-1.6792 -0.57007,-3.9516 -0.96508,-5.9255 z"
           inkscape:connector-curvature="0"
           style="fill:#b2632e"
           sodipodi:nodetypes="ccccc"
           id="path3885" />
        <path
           d="M 204.38,559.55 72.85,534.61 c 0,0 -3.857,0.578 -15.628,0.4022 14.194,2.8104 140.85,29.015 140.85,29.015 0,0 0.84936,-3.0819 6.3087,-4.4846 z"
           inkscape:connector-curvature="0"
           style="fill:#ffa162"
           sodipodi:nodetypes="ccccc"
           id="path3887" />
        <path
           d="m 198.39,574.96 20.074,3.9768 c 0,0 -0.35871,-5.7802 2.7297,-8.9616 -11.967,-2.3881 -20.873,-3.464 -20.873,-3.464 0,0 -3.9539,4.1427 -1.9302,8.4478 z"
           inkscape:connector-curvature="0"
           style="fill:url(#linearGradient4278)"
           sodipodi:nodetypes="ccccc"
           id="path3898" />
        <path
           transform="matrix(0.60251,0,0,0.62069,-37.089,439.35)"
           d="m 433.79,227.84 24.011,4.3039 c 0,0 -0.45305,-9.514 3.1713,-12.232 -14.724,-0.9061 -26.05,-2.7183 -26.05,-2.7183 0,0 -4.757,6.3426 -1.1326,10.647 z"
           inkscape:connector-curvature="0"
           style="opacity:0.28980001;fill:#ffffff;filter:url(#filter4238)"
           id="path3934" />
        <path
           sodipodi:cx="611.23114"
           sodipodi:cy="358.31345"
           transform="matrix(0.54496,0.26473,-0.25698,0.5614,5.3241,218.61)"
           d="m 615.71606,358.31345 c 0,4.51159 -2.00796,8.16897 -4.48492,8.16897 -2.47696,0 -4.48492,-3.65738 -4.48492,-8.16897 0,-4.5116 2.00796,-8.16897 4.48492,-8.16897 2.47696,0 4.48492,3.65737 4.48492,8.16897 z"
           sodipodi:type="arc"
           style="opacity:0.26531001;fill:#ffffff;filter:url(#filter4260)"
           sodipodi:ry="8.1689701"
           sodipodi:rx="4.4849248"
           id="path4020" />
        <path
           d="m 71.579,538.57 124.88,26.048 c 0,0 -3.0883,6.3629 -3.0883,8.3518 -8.4927,-1.7898 -133.37,-31.616 -133.37,-31.616 0,0 2.1232,-4.7711 11.581,-2.7853 z"
           inkscape:connector-curvature="0"
           style="fill:url(#linearGradient4288)"
           id="path4280" />
      </g>
    </g>
    <g
       transform="matrix(0.12293071,0,0,0.12293071,-0.99114737,769.32058)"
       id="layer1-0"
       inkscape:export-filename="/tmp/assembly.png"
       inkscape:export-xdpi="1000.1824"
       inkscape:export-ydpi="1000.1824">
      <g
         transform="translate(135.78,411.66)"
         id="g4821"
         style="stroke:#000000;stroke-width:8.13466358">
        <path
           d="m 75.479,200.14 1.0196,80.212 92.467,33.552 -2.3352,-80.351 z"
           id="path4823"
           inkscape:connector-curvature="0"
           style="fill:#aa0000;stroke-width:4.88079786;stroke-linecap:round;stroke-linejoin:round" />
        <path
           d="m 167.99,312.97 231.56,-63.302 -0.2262,-80.764 -232.69,64.653 z"
           id="path4825"
           inkscape:connector-curvature="0"
           style="fill:#d40000;stroke-width:4.88079786;stroke-linecap:round;stroke-linejoin:round" />
        <path
           d="m 75.756,200.12 219.35,-60.37 103.92,29.11 -233.08,64.7 z"
           id="path4827"
           inkscape:connector-curvature="0"
           style="fill:#aa0000;stroke-width:4.88079786;stroke-linecap:round;stroke-linejoin:round" />
        <g
           id="g4829"
           style="stroke-width:8.13466358">
          <g
             transform="translate(-8.7489,-166.23)"
             id="g4831"
             style="stroke-width:2.0336659">
            <path
               d="m 111.63,347.86 0.10374,17.532 c 0,0 8.0893,5.1871 22.719,5.1871 16.599,0 23.238,-6.5357 23.238,-6.5357 l -0.20749,-16.495 z"
               id="path4833"
               inkscape:connector-curvature="0"
               style="fill:url(#linearGradient6324);stroke-width:2.0336659" />
            <path
               d="m 157.5,347.49 c 0,2.9974 -10.268,5.4272 -22.935,5.4272 -12.666,0 -22.935,-2.4299 -22.935,-5.4272 0,-2.9974 10.268,-5.4272 22.935,-5.4272 12.502,0 22.7,2.3693 22.931,5.3272 l -0.1184,0.29339 z"
               id="path4835"
               inkscape:connector-curvature="0"
               style="fill:#aa0000;stroke-width:2.0336659" />
          </g>
          <g
             transform="matrix(1.0236,0,0,1.0236,35.643,-153.52)"
             id="g4837"
             style="stroke-width:2.0336659">
            <path
               d="m 111.63,347.86 0.10374,17.532 c 0,0 8.0893,5.1871 22.719,5.1871 16.599,0 23.238,-6.5357 23.238,-6.5357 l -0.20749,-16.495 z"
               id="path4839"
               inkscape:connector-curvature="0"
               style="fill:url(#linearGradient6326);stroke-width:2.0336659" />
            <path
               d="m 157.5,347.49 c 0,2.9974 -10.268,5.4272 -22.935,5.4272 -12.666,0 -22.935,-2.4299 -22.935,-5.4272 0,-2.9974 10.268,-5.4272 22.935,-5.4272 12.502,0 22.7,2.3693 22.931,5.3272 l -0.1184,0.29339 z"
               id="path4841"
               inkscape:connector-curvature="0"
               style="fill:#aa0000;stroke-width:2.0336659" />
          </g>
          <g
             transform="matrix(1.0236,0,0,1.0236,93.058,-169.93)"
             id="g4843"
             style="stroke-width:2.0336659">
            <path
               d="m 111.63,347.86 0.10374,17.532 c 0,0 8.0893,5.1871 22.719,5.1871 16.599,0 23.238,-6.5357 23.238,-6.5357 l -0.20749,-16.495 z"
               id="path4845"
               inkscape:connector-curvature="0"
               style="fill:url(#linearGradient6328);stroke-width:2.0336659" />
            <path
               d="m 157.5,347.49 c 0,2.9974 -10.268,5.4272 -22.935,5.4272 -12.666,0 -22.935,-2.4299 -22.935,-5.4272 0,-2.9974 10.268,-5.4272 22.935,-5.4272 12.502,0 22.7,2.3693 22.931,5.3272 l -0.1184,0.29339 z"
               id="path4847"
               inkscape:connector-curvature="0"
               style="fill:#aa0000;stroke-width:2.0336659" />
          </g>
          <g
             transform="matrix(0.98532,0,0,0.98532,155.29,-172.14)"
             id="g4849"
             style="stroke-width:2.0336659">
            <path
               d="m 111.63,347.86 0.10374,17.532 c 0,0 8.0893,5.1871 22.719,5.1871 16.599,0 23.238,-6.5357 23.238,-6.5357 l -0.20749,-16.495 z"
               id="path4851"
               inkscape:connector-curvature="0"
               style="fill:url(#linearGradient6330);stroke-width:2.0336659" />
            <path
               d="m 157.5,347.49 c 0,2.9974 -10.268,5.4272 -22.935,5.4272 -12.666,0 -22.935,-2.4299 -22.935,-5.4272 0,-2.9974 10.268,-5.4272 22.935,-5.4272 12.502,0 22.7,2.3693 22.931,5.3272 l -0.1184,0.29339 z"
               id="path4853"
               inkscape:connector-curvature="0"
               style="fill:#aa0000;stroke-width:2.0336659" />
          </g>
          <path
             d="m 321.6,153.11 0.10222,17.275 c 0,0 7.9706,5.1109 22.386,5.1109 16.355,0 22.897,-6.4397 22.897,-6.4397 l -0.20444,-16.253 z"
             id="path4855"
             inkscape:connector-curvature="0"
             style="fill:url(#linearGradient4885);stroke-width:2.0038116" />
          <path
             d="m 366.8,152.75 c 0,2.9534 -10.117,5.3476 -22.598,5.3476 -12.48,0 -22.598,-2.3942 -22.598,-5.3476 0,-2.9534 10.117,-5.3476 22.598,-5.3476 12.318,0 22.367,2.3345 22.594,5.249 l -0.11666,0.28908 z"
             id="path4857"
             inkscape:connector-curvature="0"
             style="fill:#aa0000;stroke-width:2.0038116" />
          <g
             transform="translate(49.213,-182.09)"
             id="g4859"
             style="stroke-width:2.0336659">
            <path
               d="m 111.63,347.86 0.10374,17.532 c 0,0 8.0893,5.1871 22.719,5.1871 16.599,0 23.238,-6.5357 23.238,-6.5357 l -0.20749,-16.495 z"
               id="path4861"
               inkscape:connector-curvature="0"
               style="fill:url(#linearGradient6332);stroke-width:2.0336659" />
            <path
               d="m 157.5,347.49 c 0,2.9974 -10.268,5.4272 -22.935,5.4272 -12.666,0 -22.935,-2.4299 -22.935,-5.4272 0,-2.9974 10.268,-5.4272 22.935,-5.4272 12.502,0 22.7,2.3693 22.931,5.3272 l -0.1184,0.29339 z"
               id="path4863"
               inkscape:connector-curvature="0"
               style="fill:#aa0000;stroke-width:2.0336659" />
          </g>
          <g
             transform="matrix(0.98099,0,0,0.98099,108.75,-190.9)"
             id="g4865"
             style="stroke-width:2.0336659">
            <path
               d="m 111.63,347.86 0.10374,17.532 c 0,0 8.0893,5.1871 22.719,5.1871 16.599,0 23.238,-6.5357 23.238,-6.5357 l -0.20749,-16.495 z"
               id="path4867"
               inkscape:connector-curvature="0"
               style="fill:url(#linearGradient6334);stroke-width:2.0336659" />
            <path
               d="m 157.5,347.49 c 0,2.9974 -10.268,5.4272 -22.935,5.4272 -12.666,0 -22.935,-2.4299 -22.935,-5.4272 0,-2.9974 10.268,-5.4272 22.935,-5.4272 12.502,0 22.7,2.3693 22.931,5.3272 l -0.1184,0.29339 z"
               id="path4869"
               inkscape:connector-curvature="0"
               style="fill:#aa0000;stroke-width:2.0336659" />
          </g>
          <g
             transform="matrix(0.98099,0,0,0.98099,165.61,-207.3)"
             id="g4871"
             style="stroke-width:2.0336659">
            <path
               d="m 111.63,347.86 0.10374,17.532 c 0,0 8.0893,5.1871 22.719,5.1871 16.599,0 23.238,-6.5357 23.238,-6.5357 l -0.20749,-16.495 z"
               id="path4873"
               inkscape:connector-curvature="0"
               style="fill:url(#linearGradient6336);stroke-width:2.0336659" />
            <path
               d="m 157.5,347.49 c 0,2.9974 -10.268,5.4272 -22.935,5.4272 -12.666,0 -22.935,-2.4299 -22.935,-5.4272 0,-2.9974 10.268,-5.4272 22.935,-5.4272 12.502,0 22.7,2.3693 22.931,5.3272 l -0.1184,0.29339 z"
               id="path4875"
               inkscape:connector-curvature="0"
               style="fill:#aa0000;stroke-width:2.0336659" />
          </g>
        </g>
      </g>
      <g
         transform="translate(861.24,306.59)"
         id="g4727">
        <g
           transform="translate(-337.35,18.942)"
           id="g5253"
           style="stroke:#000000;stroke-width:8.13466358">
          <path
             d="m -388.3,225.8 0.70074,79.256 91.512,33.241 -0.74269,-79.084 z"
             id="path4345"
             inkscape:connector-curvature="0"
             style="fill:#faa900;stroke-width:4.88079786;stroke-linecap:round;stroke-linejoin:round" />
          <path
             d="m -295.15,338 231.55,-63.403 -0.63781,-80.724 -232.27,67.574 z"
             id="path4347"
             inkscape:connector-curvature="0"
             style="fill:#fcd200;stroke-width:4.88079786;stroke-linecap:round;stroke-linejoin:round" />
          <path
             d="m -388.03,225.46 220.63,-61.011 102.8,29.423 -232.59,67.574 z"
             id="path4349"
             inkscape:connector-curvature="0"
             style="fill:#faa900;stroke-width:4.88079786;stroke-linecap:round;stroke-linejoin:round" />
          <g
             id="g4709"
             style="stroke-width:8.13466358">
            <path
               d="m -360.27,209.51 0.10374,17.532 c 0,0 8.0893,5.1871 22.719,5.1871 16.599,0 23.238,-6.5357 23.238,-6.5357 l -0.20749,-16.495 z"
               id="path4355"
               inkscape:connector-curvature="0"
               style="fill:url(#linearGradient5275);stroke-width:2.0336659" />
            <path
               d="m -314.39,209.15 c 0,2.9974 -10.268,5.4272 -22.935,5.4272 -12.666,0 -22.935,-2.4299 -22.935,-5.4272 0,-2.9974 10.268,-5.4272 22.935,-5.4272 12.502,0 22.7,2.3693 22.931,5.3272 l -0.1184,0.29339 z"
               id="path4357"
               inkscape:connector-curvature="0"
               style="fill:#faa900;stroke-width:2.0336659" />
            <path
               d="m -313.24,230.43 0.10619,17.946 c 0,0 8.2804,5.3096 23.256,5.3096 16.991,0 23.787,-6.69 23.787,-6.69 l -0.21239,-16.884 z"
               id="path4361"
               inkscape:connector-curvature="0"
               style="fill:url(#linearGradient5277);stroke-width:2.08166027" />
            <path
               d="m -266.28,230.06 c 0,3.0682 -10.511,5.5554 -23.476,5.5554 -12.966,0 -23.476,-2.4872 -23.476,-5.5554 0,-3.0682 10.511,-5.5554 23.476,-5.5554 12.797,0 23.236,2.4252 23.472,5.453 l -0.1212,0.30032 z"
               id="path4363"
               inkscape:connector-curvature="0"
               style="fill:#faa900;stroke-width:2.08166027" />
            <path
               d="m -255.82,214.03 0.10619,17.946 c 0,0 8.2804,5.3096 23.256,5.3096 16.991,0 23.787,-6.69 23.787,-6.69 l -0.21239,-16.884 z"
               id="path4367"
               inkscape:connector-curvature="0"
               style="fill:url(#linearGradient5279);stroke-width:2.08166027" />
            <path
               d="m -208.87,213.65 c 0,3.0682 -10.511,5.5554 -23.476,5.5554 -12.966,0 -23.476,-2.4872 -23.476,-5.5554 0,-3.0682 10.511,-5.5554 23.476,-5.5554 12.797,0 23.236,2.4252 23.472,5.453 l -0.1212,0.30032 z"
               id="path4369"
               inkscape:connector-curvature="0"
               style="fill:#faa900;stroke-width:2.08166027" />
            <path
               d="m -197.86,198.5 0.10222,17.275 c 0,0 7.9706,5.1109 22.386,5.1109 16.355,0 22.897,-6.4397 22.897,-6.4397 l -0.20444,-16.253 z"
               id="path4373"
               inkscape:connector-curvature="0"
               style="fill:url(#linearGradient5281);stroke-width:2.0038116" />
            <path
               d="m -152.66,198.14 c 0,2.9534 -10.117,5.3476 -22.598,5.3476 -12.48,0 -22.598,-2.3942 -22.598,-5.3476 0,-2.9534 10.117,-5.3476 22.598,-5.3476 12.318,0 22.367,2.3345 22.594,5.249 l -0.11666,0.28908 z"
               id="path4375"
               inkscape:connector-curvature="0"
               style="fill:#faa900;stroke-width:2.0038116" />
            <path
               d="m -141.54,181 0.10222,17.275 c 0,0 7.9706,5.1109 22.386,5.1109 16.355,0 22.897,-6.4397 22.897,-6.4397 l -0.20444,-16.253 z"
               id="path4379"
               inkscape:connector-curvature="0"
               style="fill:url(#linearGradient5283);stroke-width:2.0038116" />
            <path
               d="m -96.341,180.64 c 0,2.9534 -10.117,5.3476 -22.598,5.3476 -12.48,0 -22.598,-2.3942 -22.598,-5.3476 0,-2.9534 10.117,-5.3476 22.598,-5.3476 12.318,0 22.367,2.3345 22.594,5.249 l -0.11666,0.28908 z"
               id="path4381"
               inkscape:connector-curvature="0"
               style="fill:#faa900;stroke-width:2.0038116" />
            <path
               d="m -302.31,193.66 0.10374,17.532 c 0,0 8.0893,5.1871 22.719,5.1871 16.599,0 23.238,-6.5357 23.238,-6.5357 l -0.20749,-16.495 z"
               id="path4385"
               inkscape:connector-curvature="0"
               style="fill:url(#linearGradient5285);stroke-width:2.0336659" />
            <path
               d="m -256.43,193.29 c 0,2.9974 -10.268,5.4272 -22.935,5.4272 -12.666,0 -22.935,-2.4299 -22.935,-5.4272 0,-2.9974 10.268,-5.4272 22.935,-5.4272 12.502,0 22.7,2.3693 22.931,5.3272 l -0.1184,0.29339 z"
               id="path4387"
               inkscape:connector-curvature="0"
               style="fill:#faa900;stroke-width:2.0336659" />
            <path
               d="m -244.89,178.23 0.10177,17.199 c 0,0 7.9356,5.0884 22.287,5.0884 16.283,0 22.796,-6.4114 22.796,-6.4114 l -0.20354,-16.181 z"
               id="path4391"
               inkscape:connector-curvature="0"
               style="fill:url(#linearGradient5287);stroke-width:1.99502635" />
            <path
               d="m -199.89,177.88 c 0,2.9404 -10.073,5.3241 -22.499,5.3241 -12.426,0 -22.499,-2.3837 -22.499,-5.3241 0,-2.9404 10.073,-5.3241 22.499,-5.3241 12.264,0 22.269,2.3243 22.495,5.2259 l -0.11615,0.28781 z"
               id="path4393"
               inkscape:connector-curvature="0"
               style="fill:#faa900;stroke-width:1.99502635" />
            <path
               d="m -188.03,161.83 0.10177,17.199 c 0,0 7.9356,5.0884 22.287,5.0884 16.283,0 22.796,-6.4114 22.796,-6.4114 l -0.20354,-16.181 z"
               id="path4397"
               inkscape:connector-curvature="0"
               style="fill:url(#linearGradient5289);stroke-width:1.99502635" />
            <path
               d="m -143.02,161.47 c 0,2.9404 -10.073,5.3241 -22.499,5.3241 -12.426,0 -22.499,-2.3837 -22.499,-5.3241 0,-2.9404 10.073,-5.3241 22.499,-5.3241 12.264,0 22.269,2.3243 22.495,5.2259 l -0.11615,0.28781 z"
               id="path4399"
               inkscape:connector-curvature="0"
               style="fill:#faa900;stroke-width:1.99502635" />
          </g>
        </g>
      </g>
      <path
         d="m 70.361,490.43 1.0196,80.212 92.467,33.552 -2.3352,-80.351 z"
         id="path5111"
         inkscape:connector-curvature="0"
         style="fill:#aa0000;stroke:#000000;stroke-width:4.88079786;stroke-linecap:round;stroke-linejoin:round" />
      <path
         d="m 162.87,603.25 231.56,-63.302 -0.2262,-80.764 -232.69,64.653 z"
         id="path5113"
         inkscape:connector-curvature="0"
         style="fill:#d40000;stroke:#000000;stroke-width:4.88079786;stroke-linecap:round;stroke-linejoin:round" />
      <path
         d="m 70.638,490.4 219.35,-60.37 103.92,29.11 -233.08,64.7 z"
         id="path5115"
         inkscape:connector-curvature="0"
         style="fill:#aa0000;stroke:#000000;stroke-width:4.88079786;stroke-linecap:round;stroke-linejoin:round" />
      <g
         transform="matrix(1.0236,0,0,1.0236,87.94,120.35)"
         id="g5131"
         style="stroke:#000000;stroke-width:2.0336659">
        <path
           d="m 111.63,347.86 0.10374,17.532 c 0,0 8.0893,5.1871 22.719,5.1871 16.599,0 23.238,-6.5357 23.238,-6.5357 l -0.20749,-16.495 z"
           id="path5133"
           inkscape:connector-curvature="0"
           style="fill:url(#linearGradient6338);stroke-width:2.0336659" />
        <path
           d="m 157.5,347.49 c 0,2.9974 -10.268,5.4272 -22.935,5.4272 -12.666,0 -22.935,-2.4299 -22.935,-5.4272 0,-2.9974 10.268,-5.4272 22.935,-5.4272 12.502,0 22.7,2.3693 22.931,5.3272 l -0.1184,0.29339 z"
           id="path5135"
           inkscape:connector-curvature="0"
           style="fill:#aa0000;stroke-width:2.0336659" />
      </g>
      <g
         transform="matrix(0.98532,0,0,0.98532,150.18,118.14)"
         id="g5137"
         style="stroke:#000000;stroke-width:2.0336659">
        <path
           d="m 111.63,347.86 0.10374,17.532 c 0,0 8.0893,5.1871 22.719,5.1871 16.599,0 23.238,-6.5357 23.238,-6.5357 l -0.20749,-16.495 z"
           id="path5139"
           inkscape:connector-curvature="0"
           style="fill:url(#linearGradient6340);stroke-width:2.0336659" />
        <path
           d="m 157.5,347.49 c 0,2.9974 -10.268,5.4272 -22.935,5.4272 -12.666,0 -22.935,-2.4299 -22.935,-5.4272 0,-2.9974 10.268,-5.4272 22.935,-5.4272 12.502,0 22.7,2.3693 22.931,5.3272 l -0.1184,0.29339 z"
           id="path5141"
           inkscape:connector-curvature="0"
           style="fill:#aa0000;stroke-width:2.0336659" />
      </g>
      <path
         d="m 316.48,443.39 0.10222,17.275 c 0,0 7.9706,5.1109 22.386,5.1109 16.355,0 22.897,-6.4397 22.897,-6.4397 l -0.20444,-16.253 z"
         id="path5143"
         inkscape:connector-curvature="0"
         style="fill:url(#linearGradient5541);stroke:#000000;stroke-width:2.0038116" />
      <path
         d="m 361.69,443.03 c 0,2.9534 -10.117,5.3476 -22.598,5.3476 -12.48,0 -22.598,-2.3942 -22.598,-5.3476 0,-2.9534 10.117,-5.3476 22.598,-5.3476 12.318,0 22.367,2.3345 22.594,5.249 l -0.11666,0.28908 z"
         id="path5145"
         inkscape:connector-curvature="0"
         style="fill:#aa0000;stroke:#000000;stroke-width:2.0038116" />
      <g
         transform="translate(44.094,108.2)"
         id="g5147"
         style="stroke:#000000;stroke-width:2.0336659">
        <path
           d="m 111.63,347.86 0.10374,17.532 c 0,0 8.0893,5.1871 22.719,5.1871 16.599,0 23.238,-6.5357 23.238,-6.5357 l -0.20749,-16.495 z"
           id="path5149"
           inkscape:connector-curvature="0"
           style="fill:url(#linearGradient6342);stroke-width:2.0336659" />
        <path
           d="m 157.5,347.49 c 0,2.9974 -10.268,5.4272 -22.935,5.4272 -12.666,0 -22.935,-2.4299 -22.935,-5.4272 0,-2.9974 10.268,-5.4272 22.935,-5.4272 12.502,0 22.7,2.3693 22.931,5.3272 l -0.1184,0.29339 z"
           id="path5151"
           inkscape:connector-curvature="0"
           style="fill:#aa0000;stroke-width:2.0336659" />
      </g>
      <g
         transform="matrix(0.98099,0,0,0.98099,103.63,99.385)"
         id="g5153"
         style="stroke:#000000;stroke-width:2.0336659">
        <path
           d="m 111.63,347.86 0.10374,17.532 c 0,0 8.0893,5.1871 22.719,5.1871 16.599,0 23.238,-6.5357 23.238,-6.5357 l -0.20749,-16.495 z"
           id="path5155"
           inkscape:connector-curvature="0"
           style="fill:url(#linearGradient6344);stroke-width:2.0336659" />
        <path
           d="m 157.5,347.49 c 0,2.9974 -10.268,5.4272 -22.935,5.4272 -12.666,0 -22.935,-2.4299 -22.935,-5.4272 0,-2.9974 10.268,-5.4272 22.935,-5.4272 12.502,0 22.7,2.3693 22.931,5.3272 l -0.1184,0.29339 z"
           id="path5157"
           inkscape:connector-curvature="0"
           style="fill:#aa0000;stroke-width:2.0336659" />
      </g>
      <g
         transform="matrix(0.98099,0,0,0.98099,160.5,82.981)"
         id="g5159"
         style="stroke:#000000;stroke-width:2.0336659">
        <path
           d="m 111.63,347.86 0.10374,17.532 c 0,0 8.0893,5.1871 22.719,5.1871 16.599,0 23.238,-6.5357 23.238,-6.5357 l -0.20749,-16.495 z"
           id="path5161"
           inkscape:connector-curvature="0"
           style="fill:url(#linearGradient6346);stroke-width:2.0336659" />
        <path
           d="m 157.5,347.49 c 0,2.9974 -10.268,5.4272 -22.935,5.4272 -12.666,0 -22.935,-2.4299 -22.935,-5.4272 0,-2.9974 10.268,-5.4272 22.935,-5.4272 12.502,0 22.7,2.3693 22.931,5.3272 l -0.1184,0.29339 z"
           id="path5163"
           inkscape:connector-curvature="0"
           style="fill:#aa0000;stroke-width:2.0336659" />
      </g>
      <g
         transform="translate(-111.55,159.31)"
         id="g5427">
        <g
           transform="translate(-1.0936,3.2809)"
           id="g5465"
           style="stroke:#000000;stroke-width:8.13466358">
          <path
             d="m 244.88,230.34 1.0196,80.212 92.467,33.552 -2.3352,-80.351 z"
             id="path5183"
             inkscape:connector-curvature="0"
             style="fill:#1d8a1d;stroke-width:4.88079786;stroke-linecap:round;stroke-linejoin:round" />
          <path
             d="m 337.39,343.17 231.56,-63.302 -0.2262,-80.764 -232.69,64.653 z"
             id="path5185"
             inkscape:connector-curvature="0"
             style="fill:#1dbd1d;stroke-width:4.88079786;stroke-linecap:round;stroke-linejoin:round" />
          <path
             d="m 245.16,230.32 219.35,-60.37 103.92,29.11 -233.08,64.7 z"
             id="path5187"
             inkscape:connector-curvature="0"
             style="fill:#1d8a1d;stroke-width:4.88079786;stroke-linecap:round;stroke-linejoin:round" />
          <g
             id="g5409"
             style="stroke-width:8.13466358">
            <path
               d="m 272.28,211.83 0.10374,17.532 c 0,0 8.0893,5.1871 22.719,5.1871 16.599,0 23.238,-6.5357 23.238,-6.5357 l -0.20749,-16.495 z"
               id="path5193"
               inkscape:connector-curvature="0"
               style="fill:url(#linearGradient5449);stroke-width:2.0336659" />
            <path
               d="m 318.15,211.46 c 0,2.9974 -10.268,5.4272 -22.935,5.4272 -12.666,0 -22.935,-2.4299 -22.935,-5.4272 0,-2.9974 10.268,-5.4272 22.935,-5.4272 12.502,0 22.7,2.3693 22.931,5.3272 l -0.1184,0.29339 z"
               id="path5195"
               inkscape:connector-curvature="0"
               style="fill:#1d8a1d;stroke-width:2.0336659" />
            <path
               d="m 319.31,232.74 0.10619,17.946 c 0,0 8.2804,5.3096 23.256,5.3096 16.991,0 23.787,-6.69 23.787,-6.69 l -0.21239,-16.884 z"
               id="path5199"
               inkscape:connector-curvature="0"
               style="fill:url(#linearGradient5451);stroke-width:2.08166027" />
            <path
               d="m 366.27,232.37 c 0,3.0682 -10.511,5.5554 -23.476,5.5554 -12.966,0 -23.476,-2.4872 -23.476,-5.5554 0,-3.0682 10.511,-5.5554 23.476,-5.5554 12.797,0 23.236,2.4252 23.472,5.453 l -0.1212,0.30032 z"
               id="path5201"
               inkscape:connector-curvature="0"
               style="fill:#1d8a1d;stroke-width:2.08166027" />
            <path
               d="m 376.72,216.34 0.10619,17.946 c 0,0 8.2804,5.3096 23.256,5.3096 16.991,0 23.787,-6.69 23.787,-6.69 l -0.21239,-16.884 z"
               id="path5205"
               inkscape:connector-curvature="0"
               style="fill:url(#linearGradient5453);stroke-width:2.08166027" />
            <path
               d="m 423.68,215.97 c 0,3.0682 -10.511,5.5554 -23.476,5.5554 -12.966,0 -23.476,-2.4872 -23.476,-5.5554 0,-3.0682 10.511,-5.5554 23.476,-5.5554 12.797,0 23.236,2.4252 23.472,5.453 l -0.1212,0.30032 z"
               id="path5207"
               inkscape:connector-curvature="0"
               style="fill:#1d8a1d;stroke-width:2.08166027" />
            <path
               d="m 434.68,200.81 0.10222,17.275 c 0,0 7.9706,5.1109 22.386,5.1109 16.355,0 22.897,-6.4397 22.897,-6.4397 l -0.20444,-16.253 z"
               id="path5211"
               inkscape:connector-curvature="0"
               style="fill:url(#linearGradient5455);stroke-width:2.0038116" />
            <path
               d="m 479.89,200.45 c 0,2.9534 -10.117,5.3476 -22.598,5.3476 -12.48,0 -22.598,-2.3942 -22.598,-5.3476 0,-2.9534 10.117,-5.3476 22.598,-5.3476 12.318,0 22.367,2.3345 22.594,5.249 l -0.11666,0.28908 z"
               id="path5213"
               inkscape:connector-curvature="0"
               style="fill:#1d8a1d;stroke-width:2.0038116" />
            <path
               d="m 491,183.31 0.10222,17.275 c 0,0 7.9706,5.1109 22.386,5.1109 16.355,0 22.897,-6.4397 22.897,-6.4397 l -0.20444,-16.253 z"
               id="path5215"
               inkscape:connector-curvature="0"
               style="fill:url(#linearGradient5457);stroke-width:2.0038116" />
            <path
               d="m 536.21,182.95 c 0,2.9534 -10.117,5.3476 -22.598,5.3476 -12.48,0 -22.598,-2.3942 -22.598,-5.3476 0,-2.9534 10.117,-5.3476 22.598,-5.3476 12.318,0 22.367,2.3345 22.594,5.249 l -0.11666,0.28908 z"
               id="path5217"
               inkscape:connector-curvature="0"
               style="fill:#1d8a1d;stroke-width:2.0038116" />
            <path
               d="m 330.24,195.97 0.10374,17.532 c 0,0 8.0893,5.1871 22.719,5.1871 16.599,0 23.238,-6.5357 23.238,-6.5357 l -0.20749,-16.495 z"
               id="path5221"
               inkscape:connector-curvature="0"
               style="fill:url(#linearGradient5459);stroke-width:2.0336659" />
            <path
               d="m 376.12,195.6 c 0,2.9974 -10.268,5.4272 -22.935,5.4272 -12.666,0 -22.935,-2.4299 -22.935,-5.4272 0,-2.9974 10.268,-5.4272 22.935,-5.4272 12.502,0 22.7,2.3693 22.931,5.3272 l -0.1184,0.29339 z"
               id="path5223"
               inkscape:connector-curvature="0"
               style="fill:#1d8a1d;stroke-width:2.0336659" />
            <path
               d="m 387.65,180.55 0.10177,17.199 c 0,0 7.9356,5.0884 22.287,5.0884 16.283,0 22.796,-6.4114 22.796,-6.4114 l -0.20354,-16.181 z"
               id="path5227"
               inkscape:connector-curvature="0"
               style="fill:url(#linearGradient5461);stroke-width:1.99502635" />
            <path
               d="m 432.66,180.19 c 0,2.9404 -10.073,5.3241 -22.499,5.3241 -12.426,0 -22.499,-2.3837 -22.499,-5.3241 0,-2.9404 10.073,-5.3241 22.499,-5.3241 12.264,0 22.269,2.3243 22.495,5.2259 l -0.11615,0.28781 z"
               id="path5229"
               inkscape:connector-curvature="0"
               style="fill:#1d8a1d;stroke-width:1.99502635" />
            <path
               d="m 444.52,164.14 0.10177,17.199 c 0,0 7.9356,5.0884 22.287,5.0884 16.283,0 22.796,-6.4114 22.796,-6.4114 l -0.20354,-16.181 z"
               id="path5233"
               inkscape:connector-curvature="0"
               style="fill:url(#linearGradient5463);stroke-width:1.99502635" />
            <path
               d="m 489.52,163.78 c 0,2.9404 -10.073,5.3241 -22.499,5.3241 -12.426,0 -22.499,-2.3837 -22.499,-5.3241 0,-2.9404 10.073,-5.3241 22.499,-5.3241 12.264,0 22.269,2.3243 22.495,5.2259 l -0.11615,0.28781 z"
               id="path5235"
               inkscape:connector-curvature="0"
               style="fill:#1d8a1d;stroke-width:1.99502635" />
          </g>
        </g>
      </g>
      <g
         transform="translate(-13.867,124.05)"
         id="g5119"
         style="stroke:#000000;stroke-width:2.0336659">
        <path
           d="m 111.63,347.86 0.10374,17.532 c 0,0 8.0893,5.1871 22.719,5.1871 16.599,0 23.238,-6.5357 23.238,-6.5357 l -0.20749,-16.495 z"
           id="path5121"
           inkscape:connector-curvature="0"
           style="fill:url(#linearGradient6348);stroke-width:2.0336659" />
        <path
           d="m 157.5,347.49 c 0,2.9974 -10.268,5.4272 -22.935,5.4272 -12.666,0 -22.935,-2.4299 -22.935,-5.4272 0,-2.9974 10.268,-5.4272 22.935,-5.4272 12.502,0 22.7,2.3693 22.931,5.3272 l -0.1184,0.29339 z"
           id="path5123"
           inkscape:connector-curvature="0"
           style="fill:#aa0000;stroke-width:2.0336659" />
      </g>
      <g
         transform="matrix(1.0236,0,0,1.0236,30.525,136.76)"
         id="g5125"
         style="stroke:#000000;stroke-width:2.0336659">
        <path
           d="m 111.63,347.86 0.10374,17.532 c 0,0 8.0893,5.1871 22.719,5.1871 16.599,0 23.238,-6.5357 23.238,-6.5357 l -0.20749,-16.495 z"
           id="path5127"
           inkscape:connector-curvature="0"
           style="fill:url(#linearGradient4877);stroke-width:2.0336659" />
        <path
           d="m 157.5,347.49 c 0,2.9974 -10.268,5.4272 -22.935,5.4272 -12.666,0 -22.935,-2.4299 -22.935,-5.4272 0,-2.9974 10.268,-5.4272 22.935,-5.4272 12.502,0 22.7,2.3693 22.931,5.3272 l -0.1184,0.29339 z"
           id="path5129"
           inkscape:connector-curvature="0"
           style="fill:#aa0000;stroke-width:2.0336659" />
      </g>
    </g>
  </g>
</svg>
