<?xml version="1.0" encoding="UTF-8" standalone="no"?>
<!-- Created with Inkscape (http://www.inkscape.org/) -->

<svg
   xmlns:dc="http://purl.org/dc/elements/1.1/"
   xmlns:cc="http://creativecommons.org/ns#"
   xmlns:rdf="http://www.w3.org/1999/02/22-rdf-syntax-ns#"
   xmlns:svg="http://www.w3.org/2000/svg"
   xmlns="http://www.w3.org/2000/svg"
   xmlns:sodipodi="http://sodipodi.sourceforge.net/DTD/sodipodi-0.dtd"
   xmlns:inkscape="http://www.inkscape.org/namespaces/inkscape"
   width="744.09448819"
   height="1052.3622047"
   id="svg4037"
   version="1.1"
   inkscape:version="0.48.4 r9939"
   sodipodi:docname="ortho_groups_illustration.svg">
  <defs
     id="defs4039" />
  <sodipodi:namedview
     id="base"
     pagecolor="#ffffff"
     bordercolor="#666666"
     borderopacity="1.0"
     inkscape:pageopacity="0.0"
     inkscape:pageshadow="2"
     inkscape:zoom="0.7"
     inkscape:cx="171.87522"
     inkscape:cy="725.86197"
     inkscape:document-units="px"
     inkscape:current-layer="layer1"
     showgrid="false"
     showguides="false"
     inkscape:guide-bbox="true"
     inkscape:window-width="1680"
     inkscape:window-height="988"
     inkscape:window-x="-8"
     inkscape:window-y="-8"
     inkscape:window-maximized="1">
    <sodipodi:guide
       orientation="1,0"
       position="18.571429,848.57143"
       id="guide4625" />
    <sodipodi:guide
       orientation="1,0"
       position="458.57143,547.14286"
       id="guide4627" />
    <sodipodi:guide
       orientation="1,0"
       position="261.42857,762.85714"
       id="guide4661" />
    <sodipodi:guide
       orientation="1,0"
       position="722.85714,934.28571"
       id="guide4732" />
  </sodipodi:namedview>
  <metadata
     id="metadata4042">
    <rdf:RDF>
      <cc:Work
         rdf:about="">
        <dc:format>image/svg+xml</dc:format>
        <dc:type
           rdf:resource="http://purl.org/dc/dcmitype/StillImage" />
        <dc:title></dc:title>
      </cc:Work>
    </rdf:RDF>
  </metadata>
  <g
     inkscape:label="Layer 1"
     inkscape:groupmode="layer"
     id="layer1">
    <rect
       y="360.93359"
       x="18.571428"
       height="102.85711"
       width="704.28571"
       id="rect4738"
       style="color:#000000;fill:#e0e0e0;fill-opacity:1;fill-rule:nonzero;stroke:none;stroke-width:6;marker:none;visibility:visible;display:inline;overflow:visible;enable-background:accumulate"
       inkscape:export-filename="C:\tmp\og_eg.png"
       inkscape:export-xdpi="300"
       inkscape:export-ydpi="300" />
    <rect
       style="color:#000000;fill:#e0e0e0;fill-opacity:1;fill-rule:nonzero;stroke:none;stroke-width:6;marker:none;visibility:visible;display:inline;overflow:visible;enable-background:accumulate"
       id="rect4736"
       width="704.28571"
       height="47.142822"
       x="18.571428"
       y="261.50504"
       inkscape:export-filename="C:\tmp\og_eg.png"
       inkscape:export-xdpi="300"
       inkscape:export-ydpi="300" />
    <rect
       y="201.21933"
       x="18.571428"
       height="47.142822"
       width="704.28571"
       id="rect4734"
       style="color:#000000;fill:#e0e0e0;fill-opacity:1;fill-rule:nonzero;stroke:none;stroke-width:6;marker:none;visibility:visible;display:inline;overflow:visible;enable-background:accumulate"
       inkscape:export-filename="C:\tmp\og_eg.png"
       inkscape:export-xdpi="300"
       inkscape:export-ydpi="300" />
    <rect
       style="color:#000000;fill:#e0e0e0;fill-opacity:1;fill-rule:nonzero;stroke:none;stroke-width:6;marker:none;visibility:visible;display:inline;overflow:visible;enable-background:accumulate"
       id="rect4730"
       width="704.28571"
       height="47.142822"
       x="18.571428"
       y="135.21933"
       inkscape:export-filename="C:\tmp\og_eg.png"
       inkscape:export-xdpi="300"
       inkscape:export-ydpi="300" />
    <g
       id="g4663"
       transform="translate(-64.285714,0)"
       inkscape:export-filename="C:\tmp\og_eg.png"
       inkscape:export-xdpi="300"
       inkscape:export-ydpi="300">
      <rect
         ry="20.124887"
         y="37.890575"
         x="73.609879"
         height="78.60627"
         width="254.22563"
         id="rect4056"
         style="color:#000000;fill:#1b4349;fill-opacity:1;fill-rule:nonzero;stroke:none;stroke-width:1.54090762;marker:none;visibility:visible;display:inline;overflow:visible;enable-background:accumulate" />
      <flowRoot
         transform="matrix(1.8908859,0,0,1.8908859,-179.49715,-27.04768)"
         style="font-size:40px;font-style:normal;font-weight:normal;line-height:125%;letter-spacing:0px;word-spacing:0px;fill:#000000;fill-opacity:1;stroke:none;font-family:Sans"
         id="flowRoot4064"
         xml:space="preserve"><flowRegion
           id="flowRegion4066"><rect
             y="42.362183"
             x="72.14286"
             height="83.571426"
             width="257.14285"
             id="rect4068" /></flowRegion><flowPara
           style="font-size:23.7983688px;font-weight:bold;text-align:center;text-anchor:middle;fill:#ffffff;fill-opacity:1;-inkscape-font-specification:Sans Bold"
           id="flowPara4070">MHco3</flowPara></flowRoot>    </g>
    <flowRoot
       transform="matrix(1.8908859,0,0,1.8908859,214.0302,-28.372514)"
       style="font-size:40px;font-style:normal;font-weight:normal;line-height:125%;letter-spacing:0px;word-spacing:0px;fill:#000000;fill-opacity:1;stroke:none;font-family:Sans"
       id="flowRoot4582"
       xml:space="preserve"
       inkscape:export-filename="C:\tmp\og_eg.png"
       inkscape:export-xdpi="300"
       inkscape:export-ydpi="300"><flowRegion
         id="flowRegion4584"><rect
           y="42.362183"
           x="72.14286"
           height="83.571426"
           width="257.14285"
           id="rect4586" /></flowRegion><flowPara
         style="font-size:26.44263268px;font-weight:bold;text-align:center;text-anchor:middle;fill:#ffffff;fill-opacity:1;-inkscape-font-specification:Sans Bold"
         id="flowPara4588">McMaster</flowPara></flowRoot>    <text
       xml:space="preserve"
       style="font-size:33.63118744px;font-style:normal;font-weight:normal;line-height:125%;letter-spacing:0px;word-spacing:0px;fill:#000000;fill-opacity:1;stroke:none;font-family:Sans"
       x="94.910393"
       y="175.15408"
       id="text4621"
       sodipodi:linespacing="125%"
       inkscape:export-filename="C:\tmp\og_eg.png"
       inkscape:export-xdpi="300"
       inkscape:export-ydpi="300"><tspan
         sodipodi:role="line"
         id="tspan4623"
         x="94.910393"
         y="175.15408">Gene #463</tspan></text>
    <text
       sodipodi:linespacing="125%"
       id="text4629"
       y="237.61201"
       x="114.91039"
       style="font-size:33.63118744px;font-style:normal;font-weight:normal;line-height:125%;letter-spacing:0px;word-spacing:0px;fill:#000000;fill-opacity:1;stroke:none;font-family:Sans"
       xml:space="preserve"
       inkscape:export-filename="C:\tmp\og_eg.png"
       inkscape:export-xdpi="300"
       inkscape:export-ydpi="300"><tspan
         y="237.61201"
         x="114.91039"
         id="tspan4631"
         sodipodi:role="line">Gene #27</tspan></text>
    <text
       xml:space="preserve"
       style="font-size:33.63118744px;font-style:normal;font-weight:normal;line-height:125%;letter-spacing:0px;word-spacing:0px;fill:#000000;fill-opacity:1;stroke:none;font-family:Sans"
       x="52.910393"
       y="295.26547"
       id="text4633"
       sodipodi:linespacing="125%"
       inkscape:export-filename="C:\tmp\og_eg.png"
       inkscape:export-xdpi="300"
       inkscape:export-ydpi="300"><tspan
         sodipodi:role="line"
         id="tspan4635"
         x="52.910393"
         y="295.26547">Gene #13,472</tspan></text>
    <text
       sodipodi:linespacing="125%"
       id="text4641"
       y="175.15408"
       x="468.4538"
       style="font-size:33.63118744px;font-style:normal;font-weight:normal;line-height:125%;letter-spacing:0px;word-spacing:0px;fill:#000000;fill-opacity:1;stroke:none;font-family:Sans"
       xml:space="preserve"
       inkscape:export-filename="C:\tmp\og_eg.png"
       inkscape:export-xdpi="300"
       inkscape:export-ydpi="300"><tspan
         y="175.15408"
         x="468.4538"
         id="tspan4643"
         sodipodi:role="line">Gene #3963</tspan></text>
    <text
       xml:space="preserve"
       style="font-size:33.63118744px;font-style:normal;font-weight:normal;line-height:125%;letter-spacing:0px;word-spacing:0px;fill:#000000;fill-opacity:1;stroke:none;font-family:Sans"
       x="468.4538"
       y="237.61201"
       id="text4645"
       sodipodi:linespacing="125%"
       inkscape:export-filename="C:\tmp\og_eg.png"
       inkscape:export-xdpi="300"
       inkscape:export-ydpi="300"><tspan
         sodipodi:role="line"
         id="tspan4647"
         x="468.4538"
         y="237.61201">Gene #22,768</tspan></text>
    <text
       sodipodi:linespacing="125%"
       id="text4649"
       y="295.26547"
       x="468.4538"
       style="font-size:33.63118744px;font-style:normal;font-weight:normal;line-height:125%;letter-spacing:0px;word-spacing:0px;fill:#000000;fill-opacity:1;stroke:none;font-family:Sans"
       xml:space="preserve"
       inkscape:export-filename="C:\tmp\og_eg.png"
       inkscape:export-xdpi="300"
       inkscape:export-ydpi="300"><tspan
         y="295.26547"
         x="468.4538"
         id="tspan4651"
         sodipodi:role="line">Gene #16,128</tspan></text>
    <path
       style="fill:none;stroke:#494949;stroke-width:6;stroke-linecap:butt;stroke-linejoin:round;stroke-miterlimit:4;stroke-opacity:1;stroke-dasharray:6, 6;stroke-dashoffset:3"
       d="m 273.71828,163.50903 179.99201,0"
       id="path4655"
       inkscape:connector-curvature="0"
       inkscape:export-filename="C:\tmp\og_eg.png"
       inkscape:export-xdpi="300"
       inkscape:export-ydpi="300" />
    <path
       inkscape:connector-curvature="0"
       id="path4657"
       d="m 273.71828,226.36204 179.99201,0"
       style="fill:none;stroke:#494949;stroke-width:6;stroke-linecap:butt;stroke-linejoin:round;stroke-miterlimit:4;stroke-opacity:1;stroke-dasharray:6, 6;stroke-dashoffset:3"
       inkscape:export-filename="C:\tmp\og_eg.png"
       inkscape:export-xdpi="300"
       inkscape:export-ydpi="300" />
    <path
       style="fill:none;stroke:#494949;stroke-width:6;stroke-linecap:butt;stroke-linejoin:round;stroke-miterlimit:4;stroke-opacity:1;stroke-dasharray:6, 6;stroke-dashoffset:3"
       d="m 273.71828,284.92962 179.99201,0"
       id="path4659"
       inkscape:connector-curvature="0"
       inkscape:export-filename="C:\tmp\og_eg.png"
       inkscape:export-xdpi="300"
       inkscape:export-ydpi="300" />
    <g
       transform="translate(396.28571,0)"
       id="g4670"
       inkscape:export-filename="C:\tmp\og_eg.png"
       inkscape:export-xdpi="300"
       inkscape:export-ydpi="300">
      <rect
         style="color:#000000;fill:#491b3a;fill-opacity:1;fill-rule:nonzero;stroke:none;stroke-width:1.54090762;marker:none;visibility:visible;display:inline;overflow:visible;enable-background:accumulate"
         id="rect4672"
         width="254.22563"
         height="78.60627"
         x="73.609879"
         y="37.890575"
         ry="20.124887" />
      <flowRoot
         xml:space="preserve"
         id="flowRoot4674"
         style="font-size:40px;font-style:normal;font-weight:normal;line-height:125%;letter-spacing:0px;word-spacing:0px;fill:#000000;fill-opacity:1;stroke:none;font-family:Sans"
         transform="matrix(1.8908859,0,0,1.8908859,-180.70321,-24.691101)"><flowRegion
           id="flowRegion4676"><rect
             id="rect4678"
             width="257.14285"
             height="83.571426"
             x="72.14286"
             y="42.362183" /></flowRegion><flowPara
           id="flowPara4680"
           style="font-size:23.79836845px;font-weight:bold;text-align:center;text-anchor:middle;fill:#ffffff;fill-opacity:1;-inkscape-font-specification:Sans Bold">McMaster</flowPara></flowRoot>    </g>
    <text
       sodipodi:linespacing="125%"
       id="text4688"
       y="394.69403"
       x="76.910393"
       style="font-size:33.63118744px;font-style:normal;font-weight:normal;line-height:125%;letter-spacing:0px;word-spacing:0px;fill:#000000;fill-opacity:1;stroke:none;font-family:Sans"
       xml:space="preserve"
       inkscape:export-filename="C:\tmp\og_eg.png"
       inkscape:export-xdpi="300"
       inkscape:export-ydpi="300"><tspan
         y="394.69403"
         x="76.910393"
         id="tspan4690"
         sodipodi:role="line">Gene #2893</tspan></text>
    <text
       xml:space="preserve"
       style="font-size:33.63118744px;font-style:normal;font-weight:normal;line-height:125%;letter-spacing:0px;word-spacing:0px;fill:#000000;fill-opacity:1;stroke:none;font-family:Sans"
       x="468.4538"
       y="420.40833"
       id="text4692"
       sodipodi:linespacing="125%"
       inkscape:export-filename="C:\tmp\og_eg.png"
       inkscape:export-xdpi="300"
       inkscape:export-ydpi="300"><tspan
         sodipodi:role="line"
         id="tspan4694"
         x="468.4538"
         y="420.40833">Gene #2609</tspan></text>
    <path
       inkscape:connector-curvature="0"
       id="path4696"
       d="m 273.71828,384.35819 179.99201,21.42857"
       style="fill:none;stroke:#494949;stroke-width:6;stroke-linecap:butt;stroke-linejoin:round;stroke-miterlimit:4;stroke-opacity:1;stroke-dasharray:6, 6;stroke-dashoffset:3"
       sodipodi:nodetypes="cc"
       inkscape:export-filename="C:\tmp\og_eg.png"
       inkscape:export-xdpi="300"
       inkscape:export-ydpi="300" />
    <text
       xml:space="preserve"
       style="font-size:33.63118744px;font-style:normal;font-weight:normal;line-height:125%;letter-spacing:0px;word-spacing:0px;fill:#000000;fill-opacity:1;stroke:none;font-family:Sans"
       x="52.910393"
       y="447.55118"
       id="text4698"
       sodipodi:linespacing="125%"
       inkscape:export-filename="C:\tmp\og_eg.png"
       inkscape:export-xdpi="300"
       inkscape:export-ydpi="300"><tspan
         sodipodi:role="line"
         id="tspan4700"
         x="52.910393"
         y="447.55118">Gene #11,422</tspan></text>
    <path
       sodipodi:nodetypes="cc"
       style="fill:none;stroke:#494949;stroke-width:6;stroke-linecap:butt;stroke-linejoin:round;stroke-miterlimit:4;stroke-opacity:1;stroke-dasharray:6, 6;stroke-dashoffset:3"
       d="M 273.71828,439.78676 453.71029,418.35819"
       id="path4702"
       inkscape:connector-curvature="0"
       inkscape:export-filename="C:\tmp\og_eg.png"
       inkscape:export-xdpi="300"
       inkscape:export-ydpi="300" />
    <text
       sodipodi:linespacing="125%"
       id="text4720"
       y="546.69403"
       x="72.910393"
       style="font-size:33.63118744px;font-style:normal;font-weight:normal;line-height:125%;letter-spacing:0px;word-spacing:0px;fill:#000000;fill-opacity:1;stroke:none;font-family:Sans"
       xml:space="preserve"
       inkscape:export-filename="C:\tmp\og_eg.png"
       inkscape:export-xdpi="300"
       inkscape:export-ydpi="300"><tspan
         y="546.69403"
         x="72.910393"
         id="tspan4722"
         sodipodi:role="line">Gene #5213</tspan></text>
    <text
       xml:space="preserve"
       style="font-size:33.63118744px;font-style:normal;font-weight:normal;line-height:125%;letter-spacing:0px;word-spacing:0px;fill:#000000;fill-opacity:1;stroke:none;font-family:Sans"
       x="468.4538"
       y="546.69403"
       id="text4724"
       sodipodi:linespacing="125%"
       inkscape:export-filename="C:\tmp\og_eg.png"
       inkscape:export-xdpi="300"
       inkscape:export-ydpi="300"><tspan
         sodipodi:role="line"
         id="tspan4726"
         x="468.4538"
         y="546.69403">???</tspan></text>
    <path
       inkscape:connector-curvature="0"
       id="path4728"
       d="m 273.71828,536.35819 179.99201,0"
       style="fill:none;stroke:#494949;stroke-width:6;stroke-linecap:butt;stroke-linejoin:round;stroke-miterlimit:4;stroke-opacity:1;stroke-dasharray:6, 6;stroke-dashoffset:3"
       inkscape:export-filename="C:\tmp\og_eg.png"
       inkscape:export-xdpi="300"
       inkscape:export-ydpi="300" />
  </g>
</svg>
